    OpenRGB v0.7
    Commit:  from 
    Launched: 20220210_090737
====================================================================================================

0     |Info:    Found file: red.orp.orp attempting to validate header
0     |Info:    Valid v2 profile found for red.orp
0     |Info:    Found file: Red.orp attempting to validate header
1     |Info:    Valid v2 profile found for Red
1     |Info:    Found file: .orp attempting to validate header
1     |Info:    Valid v1 profile found for 
1007  |Info:    ------------------------------------------------------
1007  |Info:    |               Start device detection               |
1007  |Info:    ------------------------------------------------------
1007  |Info:    Initializing HID interfaces: Success
1010  |Info:    ------------------------------------------------------
1010  |Info:    |             Detecting I2C interfaces               |
1010  |Info:    ------------------------------------------------------
1011  |Info:    Registering I2C interface: /dev/i2c-3 Device 1002:73BF Subsystem: 1002:0E3A
1011  |Info:    Registering I2C interface: /dev/i2c-10 Device 1022:790B Subsystem: 1458:5001
1011  |Info:    Registering I2C interface: /dev/i2c-1 Device 1002:73BF Subsystem: 1002:0E3A
1011  |Info:    Registering I2C interface: /dev/i2c-8 Device 0000:0000 Subsystem: 0000:0000
1011  |Info:    Registering I2C interface: /dev/i2c-6 Device 0000:0000 Subsystem: 0000:0000
1011  |Info:    Registering I2C interface: /dev/i2c-4 Device 1002:73BF Subsystem: 1002:0E3A
1011  |Info:    Registering I2C interface: /dev/i2c-11 Device 1022:790B Subsystem: 1458:5001
1011  |Info:    Registering I2C interface: /dev/i2c-2 Device 1002:73BF Subsystem: 1002:0E3A
1011  |Info:    Registering I2C interface: /dev/i2c-0 Device 1002:73A4 Subsystem: 1002:0408
1011  |Info:    Registering I2C interface: /dev/i2c-9 Device 1022:790B Subsystem: 1458:5001
1011  |Info:    Registering I2C interface: /dev/i2c-7 Device 0000:0000 Subsystem: 0000:0000
1011  |Info:    Registering I2C interface: /dev/i2c-5 Device 1002:73BF Subsystem: 1002:0E3A
1011  |Info:    ------------------------------------------------------
1011  |Info:    |               Detecting I2C devices                |
1011  |Info:    ------------------------------------------------------
1778  |Info:    ------------------------------------------------------
1778  |Info:    |               Detecting HID devices                |
1778  |Info:    ------------------------------------------------------
1778  |Info:    [RazerController]: OpenRazer controller currently enabled. Ignoring Razer Naga Trinity
1778  |Info:    [Razer Naga Trinity] is not initialized
1956  |Info:    [X570 AORUS ELITE WIFI] Registering RGB controller
2736  |Info:    [NZXT Kraken X3] Registering RGB controller
2794  |Info:    [Corsair Lighting Node Core] Registering RGB controller
2892  |Info:    [AMD RX 6xxx GPU] Registering RGB controller
2892  |Info:    ------------------------------------------------------
2892  |Info:    |              Detecting other devices               |
2892  |Info:    ------------------------------------------------------
3022  |Info:    ------------------------------------------------------
3022  |Info:    |                Detection completed                 |
3022  |Info:    ------------------------------------------------------
4254  |Info:    Loading plugins
