    OpenRGB v0.7
    Commit:  from 
    Launched: 20220724_160154
====================================================================================================

2     |Info:    Found file: red.orp.orp attempting to validate header
3     |Info:    Valid v3 profile found for red.orp
3     |Info:    Found file: Red.orp attempting to validate header
7     |Info:    Valid v3 profile found for Red
7     |Info:    Found file: .orp attempting to validate header
13    |Info:    Valid v1 profile found for 
1726  |Info:    ------------------------------------------------------
1726  |Info:    |               Start device detection               |
1726  |Info:    ------------------------------------------------------
1726  |Info:    Initializing HID interfaces: Success
1731  |Info:    ------------------------------------------------------
1731  |Info:    |             Detecting I2C interfaces               |
1731  |Info:    ------------------------------------------------------
1731  |Info:    Registering I2C interface: /dev/i2c-3 Device 1002:73BF Subsystem: 1002:0E3A
1732  |Info:    Registering I2C interface: /dev/i2c-10 Device 1022:790B Subsystem: 1458:5001
1732  |Info:    Registering I2C interface: /dev/i2c-1 Device 1002:73BF Subsystem: 1002:0E3A
1732  |Info:    Registering I2C interface: /dev/i2c-8 Device 0000:0000 Subsystem: 0000:0000
1732  |Info:    Registering I2C interface: /dev/i2c-6 Device 1002:73BF Subsystem: 1002:0E3A
1732  |Info:    Registering I2C interface: /dev/i2c-4 Device 1002:73BF Subsystem: 1002:0E3A
1732  |Info:    Registering I2C interface: /dev/i2c-11 Device 1022:790B Subsystem: 1458:5001
1732  |Info:    Registering I2C interface: /dev/i2c-2 Device 1002:73BF Subsystem: 1002:0E3A
1732  |Info:    Registering I2C interface: /dev/i2c-0 Device 1002:73A4 Subsystem: 1002:0408
1732  |Info:    Registering I2C interface: /dev/i2c-9 Device 0000:0000 Subsystem: 0000:0000
1732  |Info:    Registering I2C interface: /dev/i2c-7 Device 0000:0000 Subsystem: 0000:0000
1732  |Info:    Registering I2C interface: /dev/i2c-5 Device 1002:73BF Subsystem: 1002:0E3A
1732  |Info:    Registering I2C interface: /dev/i2c-12 Device 1022:790B Subsystem: 1458:5001
1732  |Info:    ------------------------------------------------------
1732  |Info:    |               Detecting I2C devices                |
1732  |Info:    ------------------------------------------------------
2425  |Info:    ------------------------------------------------------
2426  |Info:    |               Detecting HID devices                |
2426  |Info:    ------------------------------------------------------
2426  |Info:    [RazerController]: OpenRazer controller currently enabled. Ignoring Razer Naga Trinity
2426  |Info:    [Razer Naga Trinity] is not initialized
2597  |Info:    [X570 AORUS ELITE WIFI] Registering RGB controller
3301  |Info:    [NZXT Kraken X3] Registering RGB controller
3355  |Info:    [Corsair Lighting Node Core] Registering RGB controller
3409  |Info:    [AMD RX 6xxx GPU] Registering RGB controller
3409  |Info:    ------------------------------------------------------
3409  |Info:    |              Detecting other devices               |
3409  |Info:    ------------------------------------------------------
3539  |Info:    ------------------------------------------------------
3539  |Info:    |                Detection completed                 |
3539  |Info:    ------------------------------------------------------
3539  |Info:    Profile loading: Succeeded for X570 AORUS ELITE WIFI @ HID: /dev/hidraw2
3539  |Info:    Profile loading: Succeeded for NZXT Kraken X3 @ HID: /dev/hidraw6
3539  |Info:    Profile loading: Succeeded for Corsair Lighting Node Core @ HID: /dev/hidraw9
3539  |Info:    Profile loading: Succeeded for AMD RX 6xxx GPU @ HID: /dev/hidraw1
3539  |Info:    Profile loading: Succeeded for Razer Naga Trinity @ /sys/bus/hid/drivers/razermouse/0003:1532:0067.0008
5005  |Info:    Loading plugins
