    OpenRGB v0.7
    Commit:  from 
    Launched: 20220509_101902
====================================================================================================

0     |Info:    Found file: red.orp.orp attempting to validate header
0     |Info:    Valid v2 profile found for red.orp
0     |Info:    Found file: Red.orp attempting to validate header
0     |Info:    Valid v2 profile found for Red
0     |Info:    Found file: .orp attempting to validate header
1     |Info:    Valid v1 profile found for 
1006  |Info:    ------------------------------------------------------
1006  |Info:    |               Start device detection               |
1006  |Info:    ------------------------------------------------------
1006  |Info:    Initializing HID interfaces: Success
1009  |Info:    ------------------------------------------------------
1009  |Info:    |             Detecting I2C interfaces               |
1009  |Info:    ------------------------------------------------------
1009  |Info:    Registering I2C interface: /dev/i2c-3 Device 1002:73BF Subsystem: 1002:0E3A
1009  |Info:    Registering I2C interface: /dev/i2c-10 Device 1022:790B Subsystem: 1458:5001
1009  |Info:    Registering I2C interface: /dev/i2c-1 Device 1002:73BF Subsystem: 1002:0E3A
1009  |Info:    Registering I2C interface: /dev/i2c-8 Device 0000:0000 Subsystem: 0000:0000
1010  |Info:    Registering I2C interface: /dev/i2c-6 Device 0000:0000 Subsystem: 0000:0000
1010  |Info:    Registering I2C interface: /dev/i2c-4 Device 1002:73BF Subsystem: 1002:0E3A
1010  |Info:    Registering I2C interface: /dev/i2c-11 Device 1022:790B Subsystem: 1458:5001
1010  |Info:    Registering I2C interface: /dev/i2c-2 Device 1002:73BF Subsystem: 1002:0E3A
1010  |Info:    Registering I2C interface: /dev/i2c-0 Device 1002:73A4 Subsystem: 1002:0408
1010  |Info:    Registering I2C interface: /dev/i2c-9 Device 1022:790B Subsystem: 1458:5001
1010  |Info:    Registering I2C interface: /dev/i2c-7 Device 0000:0000 Subsystem: 0000:0000
1010  |Info:    Registering I2C interface: /dev/i2c-5 Device 1002:73BF Subsystem: 1002:0E3A
1010  |Info:    ------------------------------------------------------
1010  |Info:    |               Detecting I2C devices                |
1010  |Info:    ------------------------------------------------------
1699  |Info:    ------------------------------------------------------
1699  |Info:    |               Detecting HID devices                |
1699  |Info:    ------------------------------------------------------
1699  |Info:    [RazerController]: OpenRazer controller currently enabled. Ignoring Razer Naga Trinity
1699  |Info:    [Razer Naga Trinity] is not initialized
1869  |Info:    [X570 AORUS ELITE WIFI] Registering RGB controller
2600  |Info:    [NZXT Kraken X3] Registering RGB controller
2654  |Info:    [Corsair Lighting Node Core] Registering RGB controller
2707  |Info:    [AMD RX 6xxx GPU] Registering RGB controller
2707  |Info:    ------------------------------------------------------
2707  |Info:    |              Detecting other devices               |
2707  |Info:    ------------------------------------------------------
2836  |Info:    ------------------------------------------------------
2836  |Info:    |                Detection completed                 |
2836  |Info:    ------------------------------------------------------
4122  |Info:    Loading plugins
