    OpenRGB v0.51
    Commit: 1df6e8f559d76c0d21551e2001fb946b4990642e from 2021-05-28 12:07:38 -0500
    Launched: 20210529_095117
====================================================================================================

Notice: Found file: red.orp.orp attempting to validate header
Notice: Valid v2 profile found for red.orp
Notice: Found file: Red.orp attempting to validate header
Notice: Valid v2 profile found for Red
Notice: Found file: .orp attempting to validate header
Notice: Valid v1 profile found for 
Notice: Detection started
Notice: Initializing HID interfaces: Success
Notice: Detecting I2C interfaces
Notice: Registering I2C interface: /dev/i2c-3
Notice: Registering I2C interface: /dev/i2c-10
Notice: Registering I2C interface: /dev/i2c-1
Notice: Registering I2C interface: /dev/i2c-8
Notice: Registering I2C interface: /dev/i2c-6
Notice: Registering I2C interface: /dev/i2c-4
Notice: Registering I2C interface: /dev/i2c-2
Notice: Registering I2C interface: /dev/i2c-0
Notice: Registering I2C interface: /dev/i2c-9
Notice: Registering I2C interface: /dev/i2c-7
Notice: Registering I2C interface: /dev/i2c-5
Notice: Detecting I2C devices
Notice: Detecting HID devices
Notice: Registering RGB controller: X570 AORUS ELITE WIFI
Notice: Registering RGB controller: NZXT Kraken X3
Notice: Registering RGB controller: Corsair Lighting Node Core
Notice: Registering RGB controller: AMD RX 6xxx GPU
Notice: Detecting other devices
Notice: Detection completed
Notice: Profile loading: FAILED! for X570 AORUS ELITE WIFI @ HID: /dev/hidraw8
Notice: Profile loading: FAILED! for NZXT Kraken X3 @ HID: /dev/hidraw13
Notice: Profile loading: FAILED! for Corsair Lighting Node Core @ HID: /dev/hidraw14
Notice: Profile loading: FAILED! for AMD RX 6xxx GPU @ HID: /dev/hidraw1
Notice: Profile loading: FAILED! for Razer Naga Trinity @ /sys/bus/hid/drivers/razermouse/0003:1532:0067.0007
