    OpenRGB v0.7
    Commit:  from 
    Launched: 20220403_101901
====================================================================================================

0     |Info:    Found file: red.orp.orp attempting to validate header
8     |Info:    Valid v2 profile found for red.orp
8     |Info:    Found file: Red.orp attempting to validate header
8     |Info:    Valid v2 profile found for Red
8     |Info:    Found file: .orp attempting to validate header
8     |Info:    Valid v1 profile found for 
1018  |Info:    ------------------------------------------------------
1018  |Info:    |               Start device detection               |
1018  |Info:    ------------------------------------------------------
1018  |Info:    Initializing HID interfaces: Success
1022  |Info:    ------------------------------------------------------
1022  |Info:    |             Detecting I2C interfaces               |
1022  |Info:    ------------------------------------------------------
1022  |Info:    Registering I2C interface: /dev/i2c-3 Device 1002:73BF Subsystem: 1002:0E3A
1022  |Info:    Registering I2C interface: /dev/i2c-10 Device 1022:790B Subsystem: 1458:5001
1022  |Info:    Registering I2C interface: /dev/i2c-1 Device 1002:73BF Subsystem: 1002:0E3A
1022  |Info:    Registering I2C interface: /dev/i2c-8 Device 0000:0000 Subsystem: 0000:0000
1022  |Info:    Registering I2C interface: /dev/i2c-6 Device 0000:0000 Subsystem: 0000:0000
1022  |Info:    Registering I2C interface: /dev/i2c-4 Device 1002:73BF Subsystem: 1002:0E3A
1022  |Info:    Registering I2C interface: /dev/i2c-11 Device 1022:790B Subsystem: 1458:5001
1022  |Info:    Registering I2C interface: /dev/i2c-2 Device 1002:73BF Subsystem: 1002:0E3A
1022  |Info:    Registering I2C interface: /dev/i2c-0 Device 1002:73A4 Subsystem: 1002:0408
1022  |Info:    Registering I2C interface: /dev/i2c-9 Device 1022:790B Subsystem: 1458:5001
1022  |Info:    Registering I2C interface: /dev/i2c-7 Device 0000:0000 Subsystem: 0000:0000
1022  |Info:    Registering I2C interface: /dev/i2c-5 Device 1002:73BF Subsystem: 1002:0E3A
1022  |Info:    ------------------------------------------------------
1022  |Info:    |               Detecting I2C devices                |
1022  |Info:    ------------------------------------------------------
1712  |Info:    ------------------------------------------------------
1712  |Info:    |               Detecting HID devices                |
1712  |Info:    ------------------------------------------------------
1712  |Info:    [RazerController]: OpenRazer controller currently enabled. Ignoring Razer Naga Trinity
1712  |Info:    [Razer Naga Trinity] is not initialized
1882  |Info:    [X570 AORUS ELITE WIFI] Registering RGB controller
2803  |Info:    [NZXT Kraken X3] Registering RGB controller
2856  |Info:    [Corsair Lighting Node Core] Registering RGB controller
2909  |Info:    [AMD RX 6xxx GPU] Registering RGB controller
2909  |Info:    ------------------------------------------------------
2909  |Info:    |              Detecting other devices               |
2909  |Info:    ------------------------------------------------------
3025  |Info:    ------------------------------------------------------
3025  |Info:    |                Detection completed                 |
3025  |Info:    ------------------------------------------------------
4587  |Info:    Loading plugins
