    OpenRGB v0.7
    Commit:  from 
    Launched: 20220414_000705
====================================================================================================

0     |Info:    Found file: red.orp.orp attempting to validate header
1     |Info:    Valid v2 profile found for red.orp
1     |Info:    Found file: Red.orp attempting to validate header
1     |Info:    Valid v2 profile found for Red
1     |Info:    Found file: .orp attempting to validate header
3     |Info:    Valid v1 profile found for 
1008  |Info:    ------------------------------------------------------
1008  |Info:    |               Start device detection               |
1008  |Info:    ------------------------------------------------------
1008  |Info:    Initializing HID interfaces: Success
1012  |Info:    ------------------------------------------------------
1012  |Info:    |             Detecting I2C interfaces               |
1012  |Info:    ------------------------------------------------------
1012  |Info:    Registering I2C interface: /dev/i2c-3 Device 1002:73BF Subsystem: 1002:0E3A
1012  |Info:    Registering I2C interface: /dev/i2c-10 Device 1022:790B Subsystem: 1458:5001
1013  |Info:    Registering I2C interface: /dev/i2c-1 Device 1002:73BF Subsystem: 1002:0E3A
1013  |Info:    Registering I2C interface: /dev/i2c-8 Device 0000:0000 Subsystem: 0000:0000
1013  |Info:    Registering I2C interface: /dev/i2c-6 Device 0000:0000 Subsystem: 0000:0000
1013  |Info:    Registering I2C interface: /dev/i2c-4 Device 1002:73BF Subsystem: 1002:0E3A
1013  |Info:    Registering I2C interface: /dev/i2c-11 Device 1022:790B Subsystem: 1458:5001
1013  |Info:    Registering I2C interface: /dev/i2c-2 Device 1002:73BF Subsystem: 1002:0E3A
1013  |Info:    Registering I2C interface: /dev/i2c-0 Device 1002:73A4 Subsystem: 1002:0408
1013  |Info:    Registering I2C interface: /dev/i2c-9 Device 1022:790B Subsystem: 1458:5001
1013  |Info:    Registering I2C interface: /dev/i2c-7 Device 0000:0000 Subsystem: 0000:0000
1013  |Info:    Registering I2C interface: /dev/i2c-5 Device 1002:73BF Subsystem: 1002:0E3A
1013  |Info:    ------------------------------------------------------
1013  |Info:    |               Detecting I2C devices                |
1013  |Info:    ------------------------------------------------------
1694  |Info:    ------------------------------------------------------
1694  |Info:    |               Detecting HID devices                |
1694  |Info:    ------------------------------------------------------
1694  |Info:    [RazerController]: OpenRazer controller currently enabled. Ignoring Razer Naga Trinity
1694  |Info:    [Razer Naga Trinity] is not initialized
1865  |Info:    [X570 AORUS ELITE WIFI] Registering RGB controller
2770  |Info:    [NZXT Kraken X3] Registering RGB controller
2823  |Info:    [Corsair Lighting Node Core] Registering RGB controller
2879  |Info:    [AMD RX 6xxx GPU] Registering RGB controller
2879  |Info:    ------------------------------------------------------
2879  |Info:    |              Detecting other devices               |
2879  |Info:    ------------------------------------------------------
3008  |Info:    ------------------------------------------------------
3008  |Info:    |                Detection completed                 |
3008  |Info:    ------------------------------------------------------
4519  |Info:    Loading plugins
