07:50:35 PM.108: CPU Name: AMD Ryzen 9 5950X 16-Core Processor
07:50:35 PM.108: CPU Speed: 3759.726MHz
07:50:35 PM.109: Physical Cores: 16, Logical Cores: 32
07:50:35 PM.109: Physical Memory: 32100MB Total, 1928MB Free
07:50:35 PM.109: Kernel Version: Linux 5.15.13-arch1-1
07:50:35 PM.109: Distribution: ArcoLinux Unknown
07:50:35 PM.109: Session Type: x11
07:50:35 PM.109: Window System: X11.0, Vendor: The X.Org Foundation, Version: 1.21.1
07:50:35 PM.109: Portable mode: false
07:50:35 PM.133: OBS 27.1.3-3 (linux)
07:50:35 PM.133: ---------------------------------
07:50:35 PM.134: ---------------------------------
07:50:35 PM.134: audio settings reset:
07:50:35 PM.134: 	samples per sec: 48000
07:50:35 PM.134: 	speakers:        2
07:50:35 PM.136: ---------------------------------
07:50:35 PM.136: Initializing OpenGL...
07:50:35 PM.186: Loading up OpenGL on adapter AMD AMD Radeon RX 6900 XT (SIENNA_CICHLID, DRM 3.42.0, 5.15.13-arch1-1, LLVM 13.0.0)
07:50:35 PM.186: OpenGL loaded successfully, version 4.6 (Core Profile) Mesa 21.3.3, shading language 4.60
07:50:35 PM.198: ---------------------------------
07:50:35 PM.198: video settings reset:
07:50:35 PM.198: 	base resolution:   1920x1080
07:50:35 PM.198: 	output resolution: 1920x1080
07:50:35 PM.198: 	downscale filter:  Bicubic
07:50:35 PM.198: 	fps:               60/1
07:50:35 PM.198: 	format:            NV12
07:50:35 PM.198: 	YUV mode:          709/Partial
07:50:35 PM.198: NV12 texture support not available
07:50:35 PM.201: Audio monitoring device:
07:50:35 PM.201: 	name: Default
07:50:35 PM.201: 	id: default
07:50:35 PM.201: ---------------------------------
07:50:35 PM.203: Failed to load 'en-US' text for module: 'decklink-captions.so'
07:50:35 PM.204: Failed to load 'en-US' text for module: 'decklink-ouput-ui.so'
07:50:35 PM.267: A DeckLink iterator could not be created.  The DeckLink drivers may not be installed
07:50:35 PM.267: No blackmagic support
07:50:35 PM.273: v4l2loopback not installed, virtual camera disabled
07:50:35 PM.279: NVENC supported
07:50:35 PM.279: FFMPEG VAAPI supported
07:50:35 PM.287: os_dlopen(/usr//lib/obs-plugins/sndio.so->/usr//lib/obs-plugins/sndio.so): libsndio.so.7: cannot open shared object file: No such file or directory
07:50:35 PM.287: 
07:50:35 PM.287: Module '/usr//lib/obs-plugins/sndio.so' not loaded
07:50:35 PM.288: ---------------------------------
07:50:35 PM.289:   Loaded Modules:
07:50:35 PM.289:     text-freetype2.so
07:50:35 PM.289:     rtmp-services.so
07:50:35 PM.289:     obs-x264.so
07:50:35 PM.289:     obs-transitions.so
07:50:35 PM.289:     obs-outputs.so
07:50:35 PM.289:     obs-libfdk.so
07:50:35 PM.289:     obs-filters.so
07:50:35 PM.289:     obs-ffmpeg.so
07:50:35 PM.289:     linux-v4l2.so
07:50:35 PM.289:     linux-pulseaudio.so
07:50:35 PM.289:     linux-jack.so
07:50:35 PM.289:     linux-decklink.so
07:50:35 PM.289:     linux-capture.so
07:50:35 PM.289:     linux-alsa.so
07:50:35 PM.289:     image-source.so
07:50:35 PM.289:     frontend-tools.so
07:50:35 PM.289:     decklink-ouput-ui.so
07:50:35 PM.289:     decklink-captions.so
07:50:35 PM.289: ---------------------------------
07:50:35 PM.289: ==== Startup complete ===============================================
07:50:35 PM.292: All scene data cleared
07:50:35 PM.293: ------------------------------------------------
07:50:35 PM.298: pulse-input: Server name: 'pulseaudio 15.0'
07:50:35 PM.298: pulse-input: Audio format: s16le, 44100 Hz, 2 channels
07:50:35 PM.298: pulse-input: Started recording from 'alsa_output.pci-0000_0e_00.4.analog-stereo.monitor'
07:50:35 PM.298: [Loaded global audio device]: 'Desktop Audio'
07:50:35 PM.298: pulse-input: Server name: 'pulseaudio 15.0'
07:50:35 PM.299: pulse-input: Audio format: s16le, 48000 Hz, 1 channels
07:50:35 PM.299: pulse-input: Started recording from 'denoised'
07:50:35 PM.299: [Loaded global audio device]: 'Mic/Aux'
07:50:35 PM.301: pulse-input: Server name: 'pulseaudio 15.0'
07:50:35 PM.302: pulse-input: Audio format: s16le, 44100 Hz, 2 channels
07:50:35 PM.302: pulse-input: Started recording from 'alsa_input.usb-Razer_Inc_Razer_Seiren_X_UC1738L01301910-00.analog-stereo'
07:50:35 PM.324: xshm-input: Geometry 2560x1440 @ 0,0
07:50:35 PM.613: v4l2-input: Start capture from /dev/video0
07:50:35 PM.624: v4l2-input: Input: 0
07:50:35 PM.649: v4l2-input: Resolution: 1920x1080
07:50:35 PM.649: v4l2-input: Pixelformat: YUYV
07:50:35 PM.649: v4l2-input: Linesize: 3840 Bytes
07:50:35 PM.649: v4l2-input: Framerate: 29.97 fps
07:50:35 PM.652: v4l2-input: /dev/video0: select timeout set to 166833us (5x frame periods)
07:50:35 PM.652: Switched to scene 'Full Cam'
07:50:35 PM.652: ------------------------------------------------
07:50:35 PM.652: Loaded scenes:
07:50:35 PM.652: - scene 'Screen Capture':
07:50:35 PM.652:     - source: 'Screen Capture (XSHM)' (xshm_input)
07:50:35 PM.652:     - source: 'Window Capture (Xcomposite)' (xcomposite_input)
07:50:35 PM.652:     - source: 'Audio Input Capture (PulseAudio)' (pulse_input_capture)
07:50:35 PM.652:     - source: 'Break' (text_ft2_source_v2)
07:50:35 PM.652:     - source: 'Sony 16:9' (v4l2_input)
07:50:35 PM.652:     - source: 'Image' (image_source)
07:50:35 PM.652: - scene 'Full Cam':
07:50:35 PM.652:     - source: 'Sony 16:9' (v4l2_input)
07:50:35 PM.652: - scene 'Block Screen':
07:50:35 PM.652:     - source: 'Image' (image_source)
07:50:35 PM.652:     - source: 'Break' (text_ft2_source_v2)
07:50:35 PM.652: ------------------------------------------------
07:50:35 PM.819: v4l2-input: /dev/video0: select timed out
07:50:35 PM.819: v4l2-input: /dev/video0: failed to log status
07:50:35 PM.829: adding 42 milliseconds of audio buffering, total audio buffering is now 42 milliseconds (source: Audio Input Capture (PulseAudio))
07:50:35 PM.829: 
07:50:55 PM.278: User switched to scene 'Screen Capture'
07:53:07 PM.755: ---------------------------------
07:53:07 PM.755: [x264 encoder: 'simple_h264_stream'] preset: veryfast
07:53:07 PM.756: [x264 encoder: 'simple_h264_stream'] settings:
07:53:07 PM.756: 	rate_control: CBR
07:53:07 PM.756: 	bitrate:      3000
07:53:07 PM.756: 	buffer size:  3000
07:53:07 PM.756: 	crf:          23
07:53:07 PM.756: 	fps_num:      60
07:53:07 PM.756: 	fps_den:      1
07:53:07 PM.756: 	width:        1920
07:53:07 PM.756: 	height:       1080
07:53:07 PM.756: 	keyint:       120
07:53:07 PM.756: 
07:53:07 PM.756: [x264 encoder: 'simple_h264_stream'] custom settings: 
07:53:07 PM.756: 	scenecut = 0
07:53:07 PM.763: libfdk_aac encoder created
07:53:07 PM.763: libfdk_aac bitrate: 160, channels: 2
07:53:07 PM.764: [rtmp stream: 'simple_stream'] Connecting to RTMP URL rtmp://live-dfw.twitch.tv/app...
07:53:08 PM.533: [rtmp stream: 'simple_stream'] Connection to rtmp://live-dfw.twitch.tv/app successful
07:53:08 PM.544: ==== Streaming Start ===============================================
10:08:15 PM.568: pulse-input: Stopped recording from 'default'
10:08:15 PM.568: pulse-input: Got 754201 packets with 37988177 frames
10:08:15 PM.568: pulse-input: Unable to get server info !
10:17:27 PM.061: [rtmp stream: 'simple_stream'] User stopped the stream
10:17:27 PM.061: Output 'simple_stream': stopping
10:17:27 PM.061: Output 'simple_stream': Total frames output: 519462
10:17:27 PM.061: Output 'simple_stream': Total drawn frames: 519474 (519558 attempted)
10:17:27 PM.061: Output 'simple_stream': Number of lagged frames due to rendering lag/stalls: 84 (0.0%)
10:17:27 PM.062: ==== Streaming Stop ================================================
10:17:27 PM.068: libfdk_aac encoder destroyed
10:17:27 PM.743: ==== Shutting down ==================================================
10:17:27 PM.750: X Error: BadWindow (invalid Window parameter), Major opcode: BadValue (integer parameter out of range for operation), Minor opcode: 0, Serial: 66
10:17:27 PM.750: X Error: BadWindow (invalid Window parameter), Major opcode: 142, Minor opcode: BadWindow (invalid Window parameter), Serial: 67
10:17:27 PM.750: pulse-input: Stopped recording from 'alsa_input.usb-Razer_Inc_Razer_Seiren_X_UC1738L01301910-00.analog-stereo'
10:17:27 PM.750: pulse-input: Got 86617 packets with 37990752 frames
10:17:27 PM.771: v4l2-input: /dev/video0: Stopped capture after 261457 frames
10:17:27 PM.772: pulse-input: Stopped recording from 'denoised'
10:17:27 PM.772: pulse-input: Got 227920 packets with 41346965 frames
10:17:27 PM.772: All scene data cleared
10:17:27 PM.772: ------------------------------------------------
10:17:27 PM.832: [Scripting] Total detached callbacks: 0
10:17:27 PM.832: Freeing OBS context data
10:17:27 PM.843: == Profiler Results =============================
10:17:27 PM.843: run_program_init: 669.321 ms
10:17:27 PM.843:  ┣OBSApp::AppInit: 2.881 ms
10:17:27 PM.843:  ┃ ┗OBSApp::InitLocale: 1.342 ms
10:17:27 PM.843:  ┗OBSApp::OBSInit: 609.948 ms
10:17:27 PM.843:    ┣obs_startup: 20.813 ms
10:17:27 PM.843:    ┗OBSBasic::OBSInit: 565.009 ms
10:17:27 PM.843:      ┣OBSBasic::InitBasicConfig: 0.048 ms
10:17:27 PM.843:      ┣OBSBasic::ResetAudio: 0.088 ms
10:17:27 PM.843:      ┣OBSBasic::ResetVideo: 67.414 ms
10:17:27 PM.843:      ┣OBSBasic::InitOBSCallbacks: 0.007 ms
10:17:27 PM.843:      ┣OBSBasic::InitHotkeys: 0.06 ms
10:17:27 PM.843:      ┣obs_load_all_modules: 87.249 ms
10:17:27 PM.843:      ┃ ┣obs_init_module(decklink-captions.so): 0.021 ms
10:17:27 PM.843:      ┃ ┣obs_init_module(decklink-ouput-ui.so): 0.333 ms
10:17:27 PM.843:      ┃ ┣obs_init_module(frontend-tools.so): 53.58 ms
10:17:27 PM.843:      ┃ ┣obs_init_module(image-source.so): 0.003 ms
10:17:27 PM.843:      ┃ ┣obs_init_module(linux-alsa.so): 0.001 ms
10:17:27 PM.843:      ┃ ┣obs_init_module(linux-capture.so): 0.207 ms
10:17:27 PM.843:      ┃ ┣obs_init_module(linux-decklink.so): 0.071 ms
10:17:27 PM.843:      ┃ ┣obs_init_module(linux-jack.so): 0 ms
10:17:27 PM.843:      ┃ ┣obs_init_module(linux-pulseaudio.so): 0.001 ms
10:17:27 PM.843:      ┃ ┣obs_init_module(linux-v4l2.so): 2.98 ms
10:17:27 PM.843:      ┃ ┣obs_init_module(obs-ffmpeg.so): 2.543 ms
10:17:27 PM.843:      ┃ ┃ ┗nvenc_check: 2.514 ms
10:17:27 PM.843:      ┃ ┣obs_init_module(obs-filters.so): 0.011 ms
10:17:27 PM.843:      ┃ ┣obs_init_module(obs-libfdk.so): 0.001 ms
10:17:27 PM.843:      ┃ ┣obs_init_module(obs-outputs.so): 0.001 ms
10:17:27 PM.843:      ┃ ┣obs_init_module(obs-transitions.so): 0.003 ms
10:17:27 PM.843:      ┃ ┣obs_init_module(obs-x264.so): 0.001 ms
10:17:27 PM.843:      ┃ ┣obs_init_module(rtmp-services.so): 0.478 ms
10:17:27 PM.843:      ┃ ┗obs_init_module(text-freetype2.so): 0.005 ms
10:17:27 PM.843:      ┣OBSBasic::ResetOutputs: 0.342 ms
10:17:27 PM.843:      ┣OBSBasic::CreateHotkeys: 0.03 ms
10:17:27 PM.843:      ┣OBSBasic::InitService: 1.007 ms
10:17:27 PM.843:      ┣OBSBasic::InitPrimitives: 0.106 ms
10:17:27 PM.843:      ┗OBSBasic::Load: 362.122 ms
10:17:27 PM.843: obs_hotkey_thread(25 ms): min=0.038 ms, median=0.102 ms, max=37.802 ms, 99th percentile=9.313 ms, 99.9894% below 25 ms
10:17:27 PM.843: audio_thread(Audio): min=0 ms, median=0.105 ms, max=1.712 ms, 99th percentile=0.602 ms
10:17:27 PM.843:  ┗receive_audio: min=0.002 ms, median=0.078 ms, max=1.138 ms, 99th percentile=0.337 ms
10:17:27 PM.843:    ┣buffer_audio: min=0 ms, median=0.001 ms, max=0.271 ms, 99th percentile=0.002 ms
10:17:27 PM.843:    ┗do_encode: min=0.033 ms, median=0.075 ms, max=1.131 ms, 99th percentile=0.332 ms
10:17:27 PM.843:      ┣encode(simple_aac): min=0.031 ms, median=0.066 ms, max=1.114 ms, 99th percentile=0.313 ms
10:17:27 PM.843:      ┗send_packet: min=0.001 ms, median=0.008 ms, max=0.263 ms, 99th percentile=0.033 ms
10:17:27 PM.843: obs_graphics_thread(16.6667 ms): min=0.041 ms, median=4.931 ms, max=352.756 ms, 99th percentile=15.512 ms, 99.3533% below 16.667 ms
10:17:27 PM.843:  ┣tick_sources: min=0 ms, median=4.378 ms, max=352.608 ms, 99th percentile=14.915 ms
10:17:27 PM.843:  ┣output_frame: min=0.029 ms, median=0.498 ms, max=7.927 ms, 99th percentile=1.042 ms
10:17:27 PM.843:  ┃ ┣gs_context(video->graphics): min=0.029 ms, median=0.168 ms, max=7.927 ms, 99th percentile=0.336 ms
10:17:27 PM.843:  ┃ ┃ ┣render_video: min=0.003 ms, median=0.094 ms, max=5.814 ms, 99th percentile=0.204 ms
10:17:27 PM.843:  ┃ ┃ ┃ ┣render_main_texture: min=0.003 ms, median=0.063 ms, max=3.325 ms, 99th percentile=0.142 ms
10:17:27 PM.843:  ┃ ┃ ┃ ┣render_convert_texture: min=0.007 ms, median=0.019 ms, max=5.689 ms, 99th percentile=0.042 ms
10:17:27 PM.843:  ┃ ┃ ┃ ┗stage_output_texture: min=0.004 ms, median=0.009 ms, max=0.322 ms, 99th percentile=0.018 ms
10:17:27 PM.843:  ┃ ┃ ┣gs_flush: min=0.001 ms, median=0.004 ms, max=0.161 ms, 99th percentile=0.008 ms
10:17:27 PM.843:  ┃ ┃ ┗download_frame: min=0 ms, median=0.03 ms, max=1.755 ms, 99th percentile=0.063 ms
10:17:27 PM.843:  ┃ ┗output_video_data: min=0.157 ms, median=0.333 ms, max=2.81 ms, 99th percentile=0.78 ms
10:17:27 PM.843:  ┗render_displays: min=0.001 ms, median=0.004 ms, max=17.175 ms, 99th percentile=0.025 ms
10:17:27 PM.843: video_thread(video): min=0.595 ms, median=0.977 ms, max=19.282 ms, 99th percentile=1.845 ms
10:17:27 PM.843:  ┗receive_video: min=0.594 ms, median=0.976 ms, max=19.281 ms, 99th percentile=1.84 ms
10:17:27 PM.843:    ┗do_encode: min=0.594 ms, median=0.975 ms, max=19.279 ms, 99th percentile=1.839 ms
10:17:27 PM.843:      ┣encode(simple_h264_stream): min=0.588 ms, median=0.967 ms, max=19.278 ms, 99th percentile=1.826 ms
10:17:27 PM.843:      ┗send_packet: min=0.001 ms, median=0.006 ms, max=0.343 ms, 99th percentile=0.021 ms
10:17:27 PM.843: =================================================
10:17:27 PM.843: == Profiler Time Between Calls ==================
10:17:27 PM.843: obs_hotkey_thread(25 ms): min=25.066 ms, median=25.163 ms, max=62.884 ms, 81.0934% within ±2% of 25 ms (0% lower, 18.9066% higher)
10:17:27 PM.843: obs_graphics_thread(16.6667 ms): min=3.222 ms, median=16.667 ms, max=352.76 ms, 98.7519% within ±2% of 16.667 ms (0.66112% lower, 0.586969% higher)
10:17:27 PM.843: =================================================
10:17:27 PM.924: Number of memory leaks: 0
