08:08:56 PM.293: CPU Name: AMD Ryzen 9 5950X 16-Core Processor
08:08:56 PM.293: CPU Speed: 4096.191MHz
08:08:56 PM.294: Physical Cores: 16, Logical Cores: 32
08:08:56 PM.294: Physical Memory: 32100MB Total, 5733MB Free
08:08:56 PM.294: Kernel Version: Linux 5.16.0-arch1-1
08:08:56 PM.294: Distribution: ArcoLinux Unknown
08:08:56 PM.294: Session Type: x11
08:08:56 PM.294: Window System: X11.0, Vendor: The X.Org Foundation, Version: 1.21.1
08:08:56 PM.295: Portable mode: false
08:08:56 PM.319: OBS 27.1.3-3 (linux)
08:08:56 PM.319: ---------------------------------
08:08:56 PM.319: ---------------------------------
08:08:56 PM.319: audio settings reset:
08:08:56 PM.319: 	samples per sec: 48000
08:08:56 PM.319: 	speakers:        2
08:08:56 PM.321: ---------------------------------
08:08:56 PM.321: Initializing OpenGL...
08:08:56 PM.373: Loading up OpenGL on adapter AMD AMD Radeon RX 6900 XT (SIENNA_CICHLID, DRM 3.44.0, 5.16.0-arch1-1, LLVM 13.0.0)
08:08:56 PM.373: OpenGL loaded successfully, version 4.6 (Core Profile) Mesa 21.3.4, shading language 4.60
08:08:56 PM.410: ---------------------------------
08:08:56 PM.410: video settings reset:
08:08:56 PM.410: 	base resolution:   1920x1080
08:08:56 PM.410: 	output resolution: 1920x1080
08:08:56 PM.410: 	downscale filter:  Bicubic
08:08:56 PM.410: 	fps:               60/1
08:08:56 PM.410: 	format:            NV12
08:08:56 PM.410: 	YUV mode:          709/Partial
08:08:56 PM.410: NV12 texture support not available
08:08:56 PM.416: Audio monitoring device:
08:08:56 PM.416: 	name: Default
08:08:56 PM.416: 	id: default
08:08:56 PM.417: ---------------------------------
08:08:56 PM.418: Failed to load 'en-US' text for module: 'decklink-captions.so'
08:08:56 PM.420: Failed to load 'en-US' text for module: 'decklink-ouput-ui.so'
08:08:56 PM.483: A DeckLink iterator could not be created.  The DeckLink drivers may not be installed
08:08:56 PM.483: No blackmagic support
08:08:56 PM.493: v4l2loopback not installed, virtual camera disabled
08:08:56 PM.503: NVENC supported
08:08:56 PM.503: FFMPEG VAAPI supported
08:08:56 PM.512: os_dlopen(/usr//lib/obs-plugins/sndio.so->/usr//lib/obs-plugins/sndio.so): libsndio.so.7: cannot open shared object file: No such file or directory
08:08:56 PM.512: 
08:08:56 PM.512: Module '/usr//lib/obs-plugins/sndio.so' not loaded
08:08:56 PM.513: ---------------------------------
08:08:56 PM.513:   Loaded Modules:
08:08:56 PM.513:     text-freetype2.so
08:08:56 PM.513:     rtmp-services.so
08:08:56 PM.513:     obs-x264.so
08:08:56 PM.513:     obs-transitions.so
08:08:56 PM.513:     obs-outputs.so
08:08:56 PM.513:     obs-libfdk.so
08:08:56 PM.513:     obs-filters.so
08:08:56 PM.513:     obs-ffmpeg.so
08:08:56 PM.513:     linux-v4l2.so
08:08:56 PM.513:     linux-pulseaudio.so
08:08:56 PM.513:     linux-jack.so
08:08:56 PM.513:     linux-decklink.so
08:08:56 PM.513:     linux-capture.so
08:08:56 PM.513:     linux-alsa.so
08:08:56 PM.513:     image-source.so
08:08:56 PM.513:     frontend-tools.so
08:08:56 PM.513:     decklink-ouput-ui.so
08:08:56 PM.513:     decklink-captions.so
08:08:56 PM.513: ---------------------------------
08:08:56 PM.513: ==== Startup complete ===============================================
08:08:56 PM.517: All scene data cleared
08:08:56 PM.517: ------------------------------------------------
08:08:56 PM.522: pulse-input: Server name: 'pulseaudio 15.0'
08:08:56 PM.523: pulse-input: Audio format: s16le, 44100 Hz, 2 channels
08:08:56 PM.523: pulse-input: Started recording from 'bluez_sink.60_AB_D2_35_E5_57.a2dp_sink.monitor'
08:08:56 PM.523: [Loaded global audio device]: 'Desktop Audio'
08:08:56 PM.523: pulse-input: Server name: 'pulseaudio 15.0'
08:08:56 PM.523: pulse-input: Audio format: s16le, 48000 Hz, 1 channels
08:08:56 PM.523: pulse-input: Started recording from 'denoised'
08:08:56 PM.523: [Loaded global audio device]: 'Mic/Aux'
08:08:56 PM.523: v4l2-input: Start capture from /dev/video0
08:08:56 PM.524: v4l2-input: Input: 0
08:08:56 PM.555: v4l2-input: Resolution: 1920x1080
08:08:56 PM.555: v4l2-input: Pixelformat: YUYV
08:08:56 PM.555: v4l2-input: Linesize: 3840 Bytes
08:08:56 PM.555: v4l2-input: Framerate: 29.97 fps
08:08:56 PM.556: v4l2-input: /dev/video0: select timeout set to 166833us (5x frame periods)
08:08:56 PM.724: v4l2-input: /dev/video0: select timed out
08:08:56 PM.724: v4l2-input: /dev/video0: failed to log status
08:08:56 PM.880: xshm-input: Geometry 2560x1440 @ 0,0
08:08:56 PM.903: pulse-input: Server name: 'pulseaudio 15.0'
08:08:56 PM.903: pulse-input: Audio format: s16le, 44100 Hz, 2 channels
08:08:56 PM.903: pulse-input: Started recording from 'alsa_input.usb-Razer_Inc_Razer_Seiren_X_UC1738L01301910-00.analog-stereo'
08:08:56 PM.914: Switched to scene 'Screen Capture'
08:08:56 PM.914: ------------------------------------------------
08:08:56 PM.914: Loaded scenes:
08:08:56 PM.914: - scene 'Screen Capture':
08:08:56 PM.915:     - source: 'Screen Capture (XSHM)' (xshm_input)
08:08:56 PM.915:     - source: 'Window Capture (Xcomposite)' (xcomposite_input)
08:08:56 PM.915:     - source: 'Audio Input Capture (PulseAudio)' (pulse_input_capture)
08:08:56 PM.915:     - source: 'Break' (text_ft2_source_v2)
08:08:56 PM.915:     - source: 'Sony 16:9' (v4l2_input)
08:08:56 PM.915:     - source: 'Image' (image_source)
08:08:56 PM.915: - scene 'Full Cam':
08:08:56 PM.915:     - source: 'Sony 16:9' (v4l2_input)
08:08:56 PM.915: - scene 'Block Screen':
08:08:56 PM.915:     - source: 'Image' (image_source)
08:08:56 PM.915:     - source: 'Break' (text_ft2_source_v2)
08:08:56 PM.915: ------------------------------------------------
08:08:57 PM.078: adding 42 milliseconds of audio buffering, total audio buffering is now 42 milliseconds (source: Desktop Audio)
08:08:57 PM.078: 
08:09:02 PM.285: ---------------------------------
08:09:02 PM.285: [x264 encoder: 'simple_h264_stream'] preset: veryfast
08:09:02 PM.285: [x264 encoder: 'simple_h264_stream'] settings:
08:09:02 PM.285: 	rate_control: CBR
08:09:02 PM.285: 	bitrate:      3000
08:09:02 PM.285: 	buffer size:  3000
08:09:02 PM.285: 	crf:          23
08:09:02 PM.285: 	fps_num:      60
08:09:02 PM.285: 	fps_den:      1
08:09:02 PM.285: 	width:        1920
08:09:02 PM.285: 	height:       1080
08:09:02 PM.285: 	keyint:       120
08:09:02 PM.285: 
08:09:02 PM.285: [x264 encoder: 'simple_h264_stream'] custom settings: 
08:09:02 PM.285: 	scenecut = 0
08:09:02 PM.294: libfdk_aac encoder created
08:09:02 PM.294: libfdk_aac bitrate: 160, channels: 2
08:09:02 PM.294: [rtmp stream: 'simple_stream'] Connecting to RTMP URL rtmp://live-dfw.twitch.tv/app...
08:09:03 PM.152: [rtmp stream: 'simple_stream'] Connection to rtmp://live-dfw.twitch.tv/app successful
08:09:03 PM.153: ==== Streaming Start ===============================================
09:33:05 PM.638: [rtmp stream: 'simple_stream'] User stopped the stream
09:33:05 PM.638: Output 'simple_stream': stopping
09:33:05 PM.638: Output 'simple_stream': Total frames output: 302465
09:33:05 PM.638: Output 'simple_stream': Total drawn frames: 302542 (302601 attempted)
09:33:05 PM.638: Output 'simple_stream': Number of lagged frames due to rendering lag/stalls: 59 (0.0%)
09:33:05 PM.638: Video stopped, number of skipped frames due to encoding lag: 516/302548 (0.2%)
09:33:05 PM.639: ==== Streaming Stop ================================================
09:33:05 PM.651: libfdk_aac encoder destroyed
09:40:38 PM.422: ==== Shutting down ==================================================
09:40:38 PM.428: pulse-input: Stopped recording from 'alsa_input.usb-Razer_Inc_Razer_Seiren_X_UC1738L01301910-00.analog-stereo'
09:40:38 PM.428: pulse-input: Got 44413 packets with 19465299 frames
09:40:38 PM.459: v4l2-input: /dev/video0: Stopped capture after 163240 frames
09:40:38 PM.461: pulse-input: Stopped recording from 'bluez_sink.60_AB_D2_35_E5_57.a2dp_sink.monitor'
09:40:38 PM.461: pulse-input: Got 106964 packets with 19480960 frames
09:40:38 PM.461: pulse-input: Stopped recording from 'denoised'
09:40:38 PM.461: pulse-input: Got 114981 packets with 21201744 frames
09:40:38 PM.461: All scene data cleared
09:40:38 PM.461: ------------------------------------------------
09:40:38 PM.510: [Scripting] Total detached callbacks: 0
09:40:38 PM.510: Freeing OBS context data
09:40:38 PM.521: == Profiler Results =============================
09:40:38 PM.521: run_program_init: 780.893 ms
09:40:38 PM.521:  ┣OBSApp::AppInit: 3.589 ms
09:40:38 PM.521:  ┃ ┗OBSApp::InitLocale: 1.894 ms
09:40:38 PM.521:  ┗OBSApp::OBSInit: 716.973 ms
09:40:38 PM.521:    ┣obs_startup: 20.586 ms
09:40:38 PM.521:    ┗OBSBasic::OBSInit: 672.051 ms
09:40:38 PM.521:      ┣OBSBasic::InitBasicConfig: 0.048 ms
09:40:38 PM.521:      ┣OBSBasic::ResetAudio: 0.118 ms
09:40:38 PM.521:      ┣OBSBasic::ResetVideo: 97.185 ms
09:40:38 PM.521:      ┣OBSBasic::InitOBSCallbacks: 0.005 ms
09:40:38 PM.521:      ┣OBSBasic::InitHotkeys: 0.033 ms
09:40:38 PM.521:      ┣obs_load_all_modules: 96.578 ms
09:40:38 PM.521:      ┃ ┣obs_init_module(decklink-captions.so): 0.022 ms
09:40:38 PM.521:      ┃ ┣obs_init_module(decklink-ouput-ui.so): 0.396 ms
09:40:38 PM.521:      ┃ ┣obs_init_module(frontend-tools.so): 52.429 ms
09:40:38 PM.521:      ┃ ┣obs_init_module(image-source.so): 0.004 ms
09:40:38 PM.521:      ┃ ┣obs_init_module(linux-alsa.so): 0.001 ms
09:40:38 PM.521:      ┃ ┣obs_init_module(linux-capture.so): 0.178 ms
09:40:38 PM.521:      ┃ ┣obs_init_module(linux-decklink.so): 0.07 ms
09:40:38 PM.521:      ┃ ┣obs_init_module(linux-jack.so): 0.001 ms
09:40:38 PM.521:      ┃ ┣obs_init_module(linux-pulseaudio.so): 0.001 ms
09:40:38 PM.521:      ┃ ┣obs_init_module(linux-v4l2.so): 3.636 ms
09:40:38 PM.522:      ┃ ┣obs_init_module(obs-ffmpeg.so): 2.222 ms
09:40:38 PM.522:      ┃ ┃ ┗nvenc_check: 2.183 ms
09:40:38 PM.522:      ┃ ┣obs_init_module(obs-filters.so): 0.01 ms
09:40:38 PM.522:      ┃ ┣obs_init_module(obs-libfdk.so): 0.001 ms
09:40:38 PM.522:      ┃ ┣obs_init_module(obs-outputs.so): 0.001 ms
09:40:38 PM.522:      ┃ ┣obs_init_module(obs-transitions.so): 0.006 ms
09:40:38 PM.522:      ┃ ┣obs_init_module(obs-x264.so): 0 ms
09:40:38 PM.522:      ┃ ┣obs_init_module(rtmp-services.so): 0.479 ms
09:40:38 PM.522:      ┃ ┗obs_init_module(text-freetype2.so): 0.004 ms
09:40:38 PM.522:      ┣OBSBasic::ResetOutputs: 0.343 ms
09:40:38 PM.522:      ┣OBSBasic::CreateHotkeys: 0.028 ms
09:40:38 PM.522:      ┣OBSBasic::InitService: 1.02 ms
09:40:38 PM.522:      ┣OBSBasic::InitPrimitives: 0.078 ms
09:40:38 PM.522:      ┗OBSBasic::Load: 405.456 ms
09:40:38 PM.522: obs_hotkey_thread(25 ms): min=0.042 ms, median=0.111 ms, max=54.016 ms, 99th percentile=9.762 ms, 99.9768% below 25 ms
09:40:38 PM.522: audio_thread(Audio): min=0 ms, median=0.114 ms, max=3.338 ms, 99th percentile=0.595 ms
09:40:38 PM.522:  ┗receive_audio: min=0.002 ms, median=0.084 ms, max=3.261 ms, 99th percentile=0.329 ms, 0.911147 calls per parent call
09:40:38 PM.522:    ┣buffer_audio: min=0 ms, median=0.001 ms, max=0.093 ms, 99th percentile=0.003 ms
09:40:38 PM.522:    ┗do_encode: min=0.037 ms, median=0.081 ms, max=3.255 ms, 99th percentile=0.325 ms
09:40:38 PM.522:      ┣encode(simple_aac): min=0.034 ms, median=0.072 ms, max=0.852 ms, 99th percentile=0.308 ms
09:40:38 PM.522:      ┗send_packet: min=0.001 ms, median=0.007 ms, max=3.135 ms, 99th percentile=0.034 ms
09:40:38 PM.522: obs_graphics_thread(16.6667 ms): min=0.089 ms, median=5.973 ms, max=394.992 ms, 99th percentile=16.165 ms, 99.1513% below 16.667 ms
09:40:38 PM.522:  ┣tick_sources: min=0 ms, median=5.41 ms, max=384.932 ms, 99th percentile=15.373 ms
09:40:38 PM.522:  ┣output_frame: min=0.061 ms, median=0.548 ms, max=24.292 ms, 99th percentile=1.384 ms
09:40:38 PM.522:  ┃ ┣gs_context(video->graphics): min=0.061 ms, median=0.193 ms, max=23.678 ms, 99th percentile=0.493 ms
09:40:38 PM.522:  ┃ ┃ ┣render_video: min=0.014 ms, median=0.113 ms, max=7.309 ms, 99th percentile=0.313 ms
09:40:38 PM.522:  ┃ ┃ ┃ ┣render_main_texture: min=0.011 ms, median=0.079 ms, max=7.271 ms, 99th percentile=0.229 ms
09:40:38 PM.522:  ┃ ┃ ┃ ┣render_convert_texture: min=0.008 ms, median=0.023 ms, max=3.169 ms, 99th percentile=0.059 ms, 0.916559 calls per parent call
09:40:38 PM.522:  ┃ ┃ ┃ ┗stage_output_texture: min=0.004 ms, median=0.01 ms, max=7.141 ms, 99th percentile=0.025 ms, 0.916559 calls per parent call
09:40:38 PM.522:  ┃ ┃ ┣gs_flush: min=0.001 ms, median=0.004 ms, max=19.646 ms, 99th percentile=0.011 ms
09:40:38 PM.522:  ┃ ┃ ┗download_frame: min=0 ms, median=0.035 ms, max=1.951 ms, 99th percentile=0.092 ms, 0.916559 calls per parent call
09:40:38 PM.522:  ┃ ┗output_video_data: min=0 ms, median=0.368 ms, max=9.625 ms, 99th percentile=0.981 ms, 0.916556 calls per parent call
09:40:38 PM.522:  ┗render_displays: min=0.001 ms, median=0.004 ms, max=8.654 ms, 99th percentile=0.015 ms
09:40:38 PM.522: video_thread(video): min=0.579 ms, median=1.03 ms, max=687.253 ms, 99th percentile=2.318 ms
09:40:38 PM.522:  ┗receive_video: min=0.578 ms, median=1.03 ms, max=283.977 ms, 99th percentile=2.363 ms
09:40:38 PM.522:    ┗do_encode: min=0.578 ms, median=1.029 ms, max=283.976 ms, 99th percentile=2.361 ms
09:40:38 PM.522:      ┣encode(simple_h264_stream): min=0.574 ms, median=1.019 ms, max=283.95 ms, 99th percentile=2.34 ms
09:40:38 PM.522:      ┗send_packet: min=0.001 ms, median=0.008 ms, max=5.694 ms, 99th percentile=0.032 ms
09:40:38 PM.522: =================================================
09:40:38 PM.522: == Profiler Time Between Calls ==================
09:40:38 PM.522: obs_hotkey_thread(25 ms): min=25.066 ms, median=25.174 ms, max=79.076 ms, 76.9785% within ±2% of 25 ms (0% lower, 23.0215% higher)
09:40:38 PM.522: obs_graphics_thread(16.6667 ms): min=4.715 ms, median=16.667 ms, max=394.995 ms, 98.2244% within ±2% of 16.667 ms (0.934772% lower, 0.84084% higher)
09:40:38 PM.522: =================================================
09:40:38 PM.595: Number of memory leaks: 0
