08:31:32 AM.134: CPU Name: AMD Ryzen 9 5950X 16-Core Processor
08:31:32 AM.134: CPU Speed: 2200.000MHz
08:31:32 AM.134: Physical Cores: 16, Logical Cores: 32
08:31:32 AM.134: Physical Memory: 32100MB Total, 12211MB Free
08:31:32 AM.134: Kernel Version: Linux 5.16.10-arch1-1
08:31:32 AM.134: Distribution: ArcoLinux Unknown
08:31:32 AM.134: Session Type: x11
08:31:32 AM.134: Window System: X11.0, Vendor: The X.Org Foundation, Version: 1.21.1
08:31:32 AM.135: Portable mode: false
08:31:32 AM.154: OBS 27.1.3-4 (linux)
08:31:32 AM.154: ---------------------------------
08:31:32 AM.154: ---------------------------------
08:31:32 AM.154: audio settings reset:
08:31:32 AM.154: 	samples per sec: 48000
08:31:32 AM.154: 	speakers:        2
08:31:32 AM.155: ---------------------------------
08:31:32 AM.155: Initializing OpenGL...
08:31:32 AM.196: Loading up OpenGL on adapter AMD AMD Radeon RX 6900 XT (SIENNA_CICHLID, DRM 3.44.0, 5.16.10-arch1-1, LLVM 13.0.1)
08:31:32 AM.196: OpenGL loaded successfully, version 4.6 (Core Profile) Mesa 21.3.6, shading language 4.60
08:31:32 AM.230: ---------------------------------
08:31:32 AM.230: video settings reset:
08:31:32 AM.230: 	base resolution:   1920x1080
08:31:32 AM.230: 	output resolution: 1920x1080
08:31:32 AM.230: 	downscale filter:  Bicubic
08:31:32 AM.230: 	fps:               60/1
08:31:32 AM.230: 	format:            NV12
08:31:32 AM.230: 	YUV mode:          709/Partial
08:31:32 AM.230: NV12 texture support not available
08:31:32 AM.234: Audio monitoring device:
08:31:32 AM.234: 	name: Default
08:31:32 AM.234: 	id: default
08:31:32 AM.234: ---------------------------------
08:31:32 AM.235: Failed to load 'en-US' text for module: 'decklink-captions.so'
08:31:32 AM.237: Failed to load 'en-US' text for module: 'decklink-ouput-ui.so'
08:31:32 AM.290: A DeckLink iterator could not be created.  The DeckLink drivers may not be installed
08:31:32 AM.290: No blackmagic support
08:31:32 AM.297: v4l2loopback not installed, virtual camera disabled
08:31:32 AM.303: NVENC supported
08:31:32 AM.303: FFMPEG VAAPI supported
08:31:32 AM.311: os_dlopen(/usr//lib/obs-plugins/sndio.so->/usr//lib/obs-plugins/sndio.so): libsndio.so.7: cannot open shared object file: No such file or directory
08:31:32 AM.311: 
08:31:32 AM.311: Module '/usr//lib/obs-plugins/sndio.so' not loaded
08:31:32 AM.312: ---------------------------------
08:31:32 AM.312:   Loaded Modules:
08:31:32 AM.312:     text-freetype2.so
08:31:32 AM.312:     rtmp-services.so
08:31:32 AM.312:     obs-x264.so
08:31:32 AM.312:     obs-transitions.so
08:31:32 AM.312:     obs-outputs.so
08:31:32 AM.312:     obs-libfdk.so
08:31:32 AM.312:     obs-filters.so
08:31:32 AM.312:     obs-ffmpeg.so
08:31:32 AM.312:     linux-v4l2.so
08:31:32 AM.312:     linux-pulseaudio.so
08:31:32 AM.312:     linux-jack.so
08:31:32 AM.312:     linux-decklink.so
08:31:32 AM.312:     linux-capture.so
08:31:32 AM.312:     linux-alsa.so
08:31:32 AM.312:     image-source.so
08:31:32 AM.312:     frontend-tools.so
08:31:32 AM.312:     decklink-ouput-ui.so
08:31:32 AM.312:     decklink-captions.so
08:31:32 AM.312: ---------------------------------
08:31:32 AM.312: ==== Startup complete ===============================================
08:31:32 AM.315: All scene data cleared
08:31:32 AM.315: ------------------------------------------------
08:31:32 AM.320: pulse-input: Server name: 'pulseaudio 15.0'
08:31:32 AM.320: pulse-input: An error occurred while getting the source info!
08:31:32 AM.320: [Loaded global audio device]: 'Desktop Audio'
08:31:32 AM.320: pulse-input: Server name: 'pulseaudio 15.0'
08:31:32 AM.320: pulse-input: Audio format: s16le, 48000 Hz, 1 channels
08:31:32 AM.320: pulse-input: Started recording from 'denoised'
08:31:32 AM.320: [Loaded global audio device]: 'Mic/Aux'
08:31:32 AM.321: v4l2-input: Start capture from /dev/video0
08:31:32 AM.413: v4l2-input: Input: 0
08:31:32 AM.444: v4l2-input: Resolution: 1920x540
08:31:32 AM.444: v4l2-input: Pixelformat: YUYV
08:31:32 AM.444: v4l2-input: Linesize: 3840 Bytes
08:31:32 AM.444: v4l2-input: Framerate: 29.97 fps
08:31:32 AM.445: v4l2-input: /dev/video0: select timeout set to 166833us (5x frame periods)
08:31:32 AM.612: v4l2-input: /dev/video0: select timed out
08:31:32 AM.612: v4l2-input: /dev/video0: failed to log status
08:31:32 AM.722: xshm-input: Geometry 2560x1440 @ 0,0
08:31:32 AM.742: pulse-input: Server name: 'pulseaudio 15.0'
08:31:32 AM.743: pulse-input: Audio format: s16le, 44100 Hz, 2 channels
08:31:32 AM.743: pulse-input: Started recording from 'alsa_input.usb-Razer_Inc_Razer_Seiren_X_UC1738L01301910-00.analog-stereo'
08:31:32 AM.746: Switched to scene 'Screen Capture'
08:31:32 AM.762: ------------------------------------------------
08:31:32 AM.762: Loaded scenes:
08:31:32 AM.762: - scene 'Screen Capture':
08:31:32 AM.763:     - source: 'Screen Capture (XSHM)' (xshm_input)
08:31:32 AM.763:     - source: 'Window Capture (Xcomposite)' (xcomposite_input)
08:31:32 AM.763:     - source: 'Audio Input Capture (PulseAudio)' (pulse_input_capture)
08:31:32 AM.763:     - source: 'Break' (text_ft2_source_v2)
08:31:32 AM.763:     - source: 'Sony 16:9' (v4l2_input)
08:31:32 AM.763:     - source: 'Image' (image_source)
08:31:32 AM.763: - scene 'Full Cam':
08:31:32 AM.763:     - source: 'Sony 16:9' (v4l2_input)
08:31:32 AM.763: - scene 'Block Screen':
08:31:32 AM.763:     - source: 'Image' (image_source)
08:31:32 AM.763:     - source: 'Break' (text_ft2_source_v2)
08:31:32 AM.763: ------------------------------------------------
08:31:32 AM.779: v4l2-input: /dev/video0: select timed out
08:31:32 AM.779: v4l2-input: /dev/video0: failed to log status
08:31:32 AM.946: v4l2-input: /dev/video0: select timed out
08:31:32 AM.946: v4l2-input: /dev/video0: failed to log status
08:31:33 AM.113: v4l2-input: /dev/video0: select timed out
08:31:33 AM.113: v4l2-input: /dev/video0: failed to log status
08:31:33 AM.280: v4l2-input: /dev/video0: select timed out
08:31:33 AM.280: v4l2-input: /dev/video0: failed to log status
08:31:33 AM.333: adding 42 milliseconds of audio buffering, total audio buffering is now 42 milliseconds (source: Audio Input Capture (PulseAudio))
08:31:33 AM.333: 
08:31:33 AM.447: v4l2-input: /dev/video0: select timed out
08:31:33 AM.447: v4l2-input: /dev/video0: failed to log status
08:31:33 AM.614: v4l2-input: /dev/video0: select timed out
08:31:33 AM.614: v4l2-input: /dev/video0: failed to log status
08:31:33 AM.781: v4l2-input: /dev/video0: select timed out
08:31:33 AM.781: v4l2-input: /dev/video0: failed to log status
08:31:33 AM.948: v4l2-input: /dev/video0: select timed out
08:31:33 AM.948: v4l2-input: /dev/video0: failed to log status
08:31:34 AM.115: v4l2-input: /dev/video0: select timed out
08:31:34 AM.115: v4l2-input: /dev/video0: failed to log status
08:31:34 AM.282: v4l2-input: /dev/video0: select timed out
08:31:34 AM.282: v4l2-input: /dev/video0: failed to log status
08:31:34 AM.449: v4l2-input: /dev/video0: select timed out
08:31:34 AM.449: v4l2-input: /dev/video0: failed to log status
08:31:34 AM.616: v4l2-input: /dev/video0: select timed out
08:31:34 AM.616: v4l2-input: /dev/video0: failed to log status
08:31:34 AM.783: v4l2-input: /dev/video0: select timed out
08:31:34 AM.783: v4l2-input: /dev/video0: failed to log status
08:31:34 AM.950: v4l2-input: /dev/video0: select timed out
08:31:34 AM.950: v4l2-input: /dev/video0: failed to log status
08:31:35 AM.117: v4l2-input: /dev/video0: select timed out
08:31:35 AM.117: v4l2-input: /dev/video0: failed to log status
08:31:35 AM.284: v4l2-input: /dev/video0: select timed out
08:31:35 AM.284: v4l2-input: /dev/video0: failed to log status
08:31:35 AM.451: v4l2-input: /dev/video0: select timed out
08:31:35 AM.451: v4l2-input: /dev/video0: failed to log status
08:31:35 AM.618: v4l2-input: /dev/video0: select timed out
08:31:35 AM.618: v4l2-input: /dev/video0: failed to log status
08:31:35 AM.785: v4l2-input: /dev/video0: select timed out
08:31:35 AM.785: v4l2-input: /dev/video0: failed to log status
08:31:35 AM.952: v4l2-input: /dev/video0: select timed out
08:31:35 AM.952: v4l2-input: /dev/video0: failed to log status
08:31:36 AM.119: v4l2-input: /dev/video0: select timed out
08:31:36 AM.119: v4l2-input: /dev/video0: failed to log status
08:31:36 AM.286: v4l2-input: /dev/video0: select timed out
08:31:36 AM.286: v4l2-input: /dev/video0: failed to log status
08:31:36 AM.454: v4l2-input: /dev/video0: select timed out
08:31:36 AM.454: v4l2-input: /dev/video0: failed to log status
08:31:36 AM.621: v4l2-input: /dev/video0: select timed out
08:31:36 AM.621: v4l2-input: /dev/video0: failed to log status
08:31:36 AM.788: v4l2-input: /dev/video0: select timed out
08:31:36 AM.788: v4l2-input: /dev/video0: failed to log status
08:31:36 AM.955: v4l2-input: /dev/video0: select timed out
08:31:36 AM.955: v4l2-input: /dev/video0: failed to log status
08:31:37 AM.122: v4l2-input: /dev/video0: select timed out
08:31:37 AM.122: v4l2-input: /dev/video0: failed to log status
08:31:37 AM.289: v4l2-input: /dev/video0: select timed out
08:31:37 AM.289: v4l2-input: /dev/video0: failed to log status
08:31:37 AM.456: v4l2-input: /dev/video0: select timed out
08:31:37 AM.456: v4l2-input: /dev/video0: failed to log status
08:31:37 AM.623: v4l2-input: /dev/video0: select timed out
08:31:37 AM.623: v4l2-input: /dev/video0: failed to log status
08:31:37 AM.790: v4l2-input: /dev/video0: select timed out
08:31:37 AM.790: v4l2-input: /dev/video0: failed to log status
08:31:37 AM.957: v4l2-input: /dev/video0: select timed out
08:31:37 AM.957: v4l2-input: /dev/video0: failed to log status
08:31:38 AM.124: v4l2-input: /dev/video0: select timed out
08:31:38 AM.124: v4l2-input: /dev/video0: failed to log status
08:31:38 AM.291: v4l2-input: /dev/video0: select timed out
08:31:38 AM.291: v4l2-input: /dev/video0: failed to log status
08:31:38 AM.458: v4l2-input: /dev/video0: select timed out
08:31:38 AM.458: v4l2-input: /dev/video0: failed to log status
08:31:38 AM.625: v4l2-input: /dev/video0: select timed out
08:31:38 AM.625: v4l2-input: /dev/video0: failed to log status
08:31:38 AM.792: v4l2-input: /dev/video0: select timed out
08:31:38 AM.792: v4l2-input: /dev/video0: failed to log status
08:31:38 AM.959: v4l2-input: /dev/video0: select timed out
08:31:38 AM.959: v4l2-input: /dev/video0: failed to log status
08:31:39 AM.126: v4l2-input: /dev/video0: select timed out
08:31:39 AM.126: v4l2-input: /dev/video0: failed to log status
08:31:39 AM.293: v4l2-input: /dev/video0: select timed out
08:31:39 AM.293: v4l2-input: /dev/video0: failed to log status
08:31:39 AM.460: v4l2-input: /dev/video0: select timed out
08:31:39 AM.465: v4l2-input: /dev/video0: failed to log status
08:31:39 AM.632: v4l2-input: /dev/video0: select timed out
08:31:39 AM.632: v4l2-input: /dev/video0: failed to log status
08:31:39 AM.799: v4l2-input: /dev/video0: select timed out
08:31:39 AM.799: v4l2-input: /dev/video0: failed to log status
08:31:39 AM.966: v4l2-input: /dev/video0: select timed out
08:31:39 AM.966: v4l2-input: /dev/video0: failed to log status
08:31:40 AM.134: v4l2-input: /dev/video0: select timed out
08:31:40 AM.134: v4l2-input: /dev/video0: failed to log status
08:31:40 AM.301: v4l2-input: /dev/video0: select timed out
08:31:40 AM.301: v4l2-input: /dev/video0: failed to log status
08:31:40 AM.468: v4l2-input: /dev/video0: select timed out
08:31:40 AM.468: v4l2-input: /dev/video0: failed to log status
08:31:40 AM.635: v4l2-input: /dev/video0: select timed out
08:31:40 AM.635: v4l2-input: /dev/video0: failed to log status
08:31:40 AM.802: v4l2-input: /dev/video0: select timed out
08:31:40 AM.802: v4l2-input: /dev/video0: failed to log status
08:31:40 AM.969: v4l2-input: /dev/video0: select timed out
08:31:40 AM.969: v4l2-input: /dev/video0: failed to log status
08:31:41 AM.136: v4l2-input: /dev/video0: select timed out
08:31:41 AM.136: v4l2-input: /dev/video0: failed to log status
08:31:41 AM.303: v4l2-input: /dev/video0: select timed out
08:31:41 AM.303: v4l2-input: /dev/video0: failed to log status
08:31:41 AM.470: v4l2-input: /dev/video0: select timed out
08:31:41 AM.470: v4l2-input: /dev/video0: failed to log status
08:31:41 AM.637: v4l2-input: /dev/video0: select timed out
08:31:41 AM.637: v4l2-input: /dev/video0: failed to log status
08:31:41 AM.804: v4l2-input: /dev/video0: select timed out
08:31:41 AM.804: v4l2-input: /dev/video0: failed to log status
08:31:41 AM.971: v4l2-input: /dev/video0: select timed out
08:31:41 AM.971: v4l2-input: /dev/video0: failed to log status
08:31:42 AM.138: v4l2-input: /dev/video0: select timed out
08:31:42 AM.138: v4l2-input: /dev/video0: failed to log status
08:31:42 AM.305: v4l2-input: /dev/video0: select timed out
08:31:42 AM.305: v4l2-input: /dev/video0: failed to log status
08:31:42 AM.472: v4l2-input: /dev/video0: select timed out
08:31:42 AM.472: v4l2-input: /dev/video0: failed to log status
08:31:42 AM.639: v4l2-input: /dev/video0: select timed out
08:31:42 AM.639: v4l2-input: /dev/video0: failed to log status
08:31:42 AM.806: v4l2-input: /dev/video0: select timed out
08:31:42 AM.806: v4l2-input: /dev/video0: failed to log status
08:31:42 AM.974: v4l2-input: /dev/video0: select timed out
08:31:42 AM.974: v4l2-input: /dev/video0: failed to log status
08:31:43 AM.141: v4l2-input: /dev/video0: select timed out
08:31:43 AM.141: v4l2-input: /dev/video0: failed to log status
08:31:43 AM.308: v4l2-input: /dev/video0: select timed out
08:31:43 AM.308: v4l2-input: /dev/video0: failed to log status
08:31:43 AM.475: v4l2-input: /dev/video0: select timed out
08:31:43 AM.475: v4l2-input: /dev/video0: failed to log status
08:31:43 AM.642: v4l2-input: /dev/video0: select timed out
08:31:43 AM.642: v4l2-input: /dev/video0: failed to log status
08:31:43 AM.809: v4l2-input: /dev/video0: select timed out
08:31:43 AM.809: v4l2-input: /dev/video0: failed to log status
08:31:43 AM.976: v4l2-input: /dev/video0: select timed out
08:31:43 AM.976: v4l2-input: /dev/video0: failed to log status
08:31:44 AM.143: v4l2-input: /dev/video0: select timed out
08:31:44 AM.143: v4l2-input: /dev/video0: failed to log status
08:31:44 AM.310: v4l2-input: /dev/video0: select timed out
08:31:44 AM.310: v4l2-input: /dev/video0: failed to log status
08:31:44 AM.477: v4l2-input: /dev/video0: select timed out
08:31:44 AM.477: v4l2-input: /dev/video0: failed to log status
08:31:44 AM.644: v4l2-input: /dev/video0: select timed out
08:31:44 AM.644: v4l2-input: /dev/video0: failed to log status
08:31:44 AM.811: v4l2-input: /dev/video0: select timed out
08:31:44 AM.811: v4l2-input: /dev/video0: failed to log status
08:31:44 AM.978: v4l2-input: /dev/video0: select timed out
08:31:44 AM.978: v4l2-input: /dev/video0: failed to log status
08:31:45 AM.145: v4l2-input: /dev/video0: select timed out
08:31:45 AM.145: v4l2-input: /dev/video0: failed to log status
08:31:45 AM.312: v4l2-input: /dev/video0: select timed out
08:31:45 AM.312: v4l2-input: /dev/video0: failed to log status
08:31:45 AM.479: v4l2-input: /dev/video0: select timed out
08:31:45 AM.479: v4l2-input: /dev/video0: failed to log status
08:31:45 AM.646: v4l2-input: /dev/video0: select timed out
08:31:45 AM.646: v4l2-input: /dev/video0: failed to log status
08:31:45 AM.813: v4l2-input: /dev/video0: select timed out
08:31:45 AM.813: v4l2-input: /dev/video0: failed to log status
08:31:45 AM.980: v4l2-input: /dev/video0: select timed out
08:31:45 AM.980: v4l2-input: /dev/video0: failed to log status
08:31:46 AM.147: v4l2-input: /dev/video0: select timed out
08:31:46 AM.147: v4l2-input: /dev/video0: failed to log status
08:31:46 AM.314: v4l2-input: /dev/video0: select timed out
08:31:46 AM.314: v4l2-input: /dev/video0: failed to log status
08:31:46 AM.481: v4l2-input: /dev/video0: select timed out
08:31:46 AM.481: v4l2-input: /dev/video0: failed to log status
08:31:46 AM.648: v4l2-input: /dev/video0: select timed out
08:31:46 AM.648: v4l2-input: /dev/video0: failed to log status
08:31:46 AM.815: v4l2-input: /dev/video0: select timed out
08:31:46 AM.815: v4l2-input: /dev/video0: failed to log status
08:31:46 AM.982: v4l2-input: /dev/video0: select timed out
08:31:46 AM.982: v4l2-input: /dev/video0: failed to log status
08:31:47 AM.149: v4l2-input: /dev/video0: select timed out
08:31:47 AM.149: v4l2-input: /dev/video0: failed to log status
08:31:47 AM.316: v4l2-input: /dev/video0: select timed out
08:31:47 AM.316: v4l2-input: /dev/video0: failed to log status
08:31:47 AM.484: v4l2-input: /dev/video0: select timed out
08:31:47 AM.484: v4l2-input: /dev/video0: failed to log status
08:31:47 AM.651: v4l2-input: /dev/video0: select timed out
08:31:47 AM.651: v4l2-input: /dev/video0: failed to log status
08:31:47 AM.818: v4l2-input: /dev/video0: select timed out
08:31:47 AM.818: v4l2-input: /dev/video0: failed to log status
08:31:47 AM.985: v4l2-input: /dev/video0: select timed out
08:31:47 AM.985: v4l2-input: /dev/video0: failed to log status
08:31:48 AM.152: v4l2-input: /dev/video0: select timed out
08:31:48 AM.152: v4l2-input: /dev/video0: failed to log status
08:31:48 AM.319: v4l2-input: /dev/video0: select timed out
08:31:48 AM.319: v4l2-input: /dev/video0: failed to log status
08:31:48 AM.486: v4l2-input: /dev/video0: select timed out
08:31:48 AM.486: v4l2-input: /dev/video0: failed to log status
08:31:48 AM.653: v4l2-input: /dev/video0: select timed out
08:31:48 AM.653: v4l2-input: /dev/video0: failed to log status
08:31:48 AM.820: v4l2-input: /dev/video0: select timed out
08:31:48 AM.820: v4l2-input: /dev/video0: failed to log status
08:31:48 AM.987: v4l2-input: /dev/video0: select timed out
08:31:48 AM.987: v4l2-input: /dev/video0: failed to log status
08:31:49 AM.154: v4l2-input: /dev/video0: select timed out
08:31:49 AM.154: v4l2-input: /dev/video0: failed to log status
08:31:49 AM.321: v4l2-input: /dev/video0: select timed out
08:31:49 AM.321: v4l2-input: /dev/video0: failed to log status
08:31:49 AM.488: v4l2-input: /dev/video0: select timed out
08:31:49 AM.488: v4l2-input: /dev/video0: failed to log status
08:31:49 AM.535: User switched to scene 'Full Cam'
08:31:49 AM.655: v4l2-input: /dev/video0: select timed out
08:31:49 AM.655: v4l2-input: /dev/video0: failed to log status
08:31:49 AM.822: v4l2-input: /dev/video0: select timed out
08:31:49 AM.822: v4l2-input: /dev/video0: failed to log status
08:31:49 AM.989: v4l2-input: /dev/video0: select timed out
08:31:49 AM.989: v4l2-input: /dev/video0: failed to log status
08:31:50 AM.156: v4l2-input: /dev/video0: select timed out
08:31:50 AM.157: v4l2-input: /dev/video0: failed to log status
08:31:50 AM.324: v4l2-input: /dev/video0: select timed out
08:31:50 AM.324: v4l2-input: /dev/video0: failed to log status
08:31:50 AM.491: v4l2-input: /dev/video0: select timed out
08:31:50 AM.491: v4l2-input: /dev/video0: failed to log status
08:31:50 AM.536: User switched to scene 'Block Screen'
08:31:50 AM.658: v4l2-input: /dev/video0: select timed out
08:31:50 AM.658: v4l2-input: /dev/video0: failed to log status
08:31:50 AM.825: v4l2-input: /dev/video0: select timed out
08:31:50 AM.825: v4l2-input: /dev/video0: failed to log status
08:31:50 AM.992: v4l2-input: /dev/video0: select timed out
08:31:50 AM.992: v4l2-input: /dev/video0: failed to log status
08:31:51 AM.048: User switched to scene 'Screen Capture'
08:31:51 AM.159: v4l2-input: /dev/video0: select timed out
08:31:51 AM.159: v4l2-input: /dev/video0: failed to log status
08:31:51 AM.326: v4l2-input: /dev/video0: select timed out
08:31:51 AM.326: v4l2-input: /dev/video0: failed to log status
08:31:51 AM.493: v4l2-input: /dev/video0: select timed out
08:31:51 AM.493: v4l2-input: /dev/video0: failed to log status
08:31:51 AM.647: User switched to scene 'Block Screen'
08:31:51 AM.660: v4l2-input: /dev/video0: select timed out
08:31:51 AM.660: v4l2-input: /dev/video0: failed to log status
08:31:51 AM.827: v4l2-input: /dev/video0: select timed out
08:31:51 AM.827: v4l2-input: /dev/video0: failed to log status
08:31:51 AM.994: v4l2-input: /dev/video0: select timed out
08:31:51 AM.994: v4l2-input: /dev/video0: failed to log status
08:31:52 AM.161: v4l2-input: /dev/video0: select timed out
08:31:52 AM.161: v4l2-input: /dev/video0: failed to log status
08:31:52 AM.328: v4l2-input: /dev/video0: select timed out
08:31:52 AM.328: v4l2-input: /dev/video0: failed to log status
08:31:52 AM.495: v4l2-input: /dev/video0: select timed out
08:31:52 AM.495: v4l2-input: /dev/video0: failed to log status
08:31:52 AM.662: v4l2-input: /dev/video0: select timed out
08:31:52 AM.662: v4l2-input: /dev/video0: failed to log status
08:31:52 AM.829: v4l2-input: /dev/video0: select timed out
08:31:52 AM.829: v4l2-input: /dev/video0: failed to log status
08:31:52 AM.996: v4l2-input: /dev/video0: select timed out
08:31:52 AM.996: v4l2-input: /dev/video0: failed to log status
08:31:53 AM.163: v4l2-input: /dev/video0: select timed out
08:31:53 AM.163: v4l2-input: /dev/video0: failed to log status
08:31:53 AM.330: v4l2-input: /dev/video0: select timed out
08:31:53 AM.330: v4l2-input: /dev/video0: failed to log status
08:31:53 AM.497: v4l2-input: /dev/video0: select timed out
08:31:53 AM.497: v4l2-input: /dev/video0: failed to log status
08:31:53 AM.664: v4l2-input: /dev/video0: select timed out
08:31:53 AM.664: v4l2-input: /dev/video0: failed to log status
08:31:53 AM.831: v4l2-input: /dev/video0: select timed out
08:31:53 AM.831: v4l2-input: /dev/video0: failed to log status
08:31:53 AM.998: v4l2-input: /dev/video0: select timed out
08:31:53 AM.998: v4l2-input: /dev/video0: failed to log status
08:31:54 AM.165: v4l2-input: /dev/video0: select timed out
08:31:54 AM.165: v4l2-input: /dev/video0: failed to log status
08:31:54 AM.332: v4l2-input: /dev/video0: select timed out
08:31:54 AM.332: v4l2-input: /dev/video0: failed to log status
08:31:54 AM.500: v4l2-input: /dev/video0: select timed out
08:31:54 AM.500: v4l2-input: /dev/video0: failed to log status
08:31:54 AM.667: v4l2-input: /dev/video0: select timed out
08:31:54 AM.667: v4l2-input: /dev/video0: failed to log status
08:31:54 AM.834: v4l2-input: /dev/video0: select timed out
08:31:54 AM.834: v4l2-input: /dev/video0: failed to log status
08:31:55 AM.001: v4l2-input: /dev/video0: select timed out
08:31:55 AM.001: v4l2-input: /dev/video0: failed to log status
08:31:55 AM.168: v4l2-input: /dev/video0: select timed out
08:31:55 AM.168: v4l2-input: /dev/video0: failed to log status
08:31:55 AM.335: v4l2-input: /dev/video0: select timed out
08:31:55 AM.335: v4l2-input: /dev/video0: failed to log status
08:31:55 AM.502: v4l2-input: /dev/video0: select timed out
08:31:55 AM.502: v4l2-input: /dev/video0: failed to log status
08:31:55 AM.669: v4l2-input: /dev/video0: select timed out
08:31:55 AM.669: v4l2-input: /dev/video0: failed to log status
08:31:55 AM.836: v4l2-input: /dev/video0: select timed out
08:31:55 AM.836: v4l2-input: /dev/video0: failed to log status
08:31:56 AM.003: v4l2-input: /dev/video0: select timed out
08:31:56 AM.003: v4l2-input: /dev/video0: failed to log status
08:31:56 AM.170: v4l2-input: /dev/video0: select timed out
08:31:56 AM.170: v4l2-input: /dev/video0: failed to log status
08:31:56 AM.337: v4l2-input: /dev/video0: select timed out
08:31:56 AM.337: v4l2-input: /dev/video0: failed to log status
08:31:56 AM.504: v4l2-input: /dev/video0: select timed out
08:31:56 AM.504: v4l2-input: /dev/video0: failed to log status
08:31:56 AM.671: v4l2-input: /dev/video0: select timed out
08:31:56 AM.671: v4l2-input: /dev/video0: failed to log status
08:31:56 AM.838: v4l2-input: /dev/video0: select timed out
08:31:56 AM.838: v4l2-input: /dev/video0: failed to log status
08:31:57 AM.005: v4l2-input: /dev/video0: select timed out
08:31:57 AM.005: v4l2-input: /dev/video0: failed to log status
08:31:57 AM.172: v4l2-input: /dev/video0: select timed out
08:31:57 AM.172: v4l2-input: /dev/video0: failed to log status
08:31:57 AM.339: v4l2-input: /dev/video0: select timed out
08:31:57 AM.339: v4l2-input: /dev/video0: failed to log status
08:31:57 AM.506: v4l2-input: /dev/video0: select timed out
08:31:57 AM.506: v4l2-input: /dev/video0: failed to log status
08:31:57 AM.673: v4l2-input: /dev/video0: select timed out
08:31:57 AM.673: v4l2-input: /dev/video0: failed to log status
08:31:57 AM.840: v4l2-input: /dev/video0: select timed out
08:31:57 AM.840: v4l2-input: /dev/video0: failed to log status
08:31:57 AM.891: User switched to scene 'Screen Capture'
08:31:58 AM.007: v4l2-input: /dev/video0: select timed out
08:31:58 AM.007: v4l2-input: /dev/video0: failed to log status
08:31:58 AM.174: v4l2-input: /dev/video0: select timed out
08:31:58 AM.174: v4l2-input: /dev/video0: failed to log status
08:31:58 AM.341: v4l2-input: /dev/video0: select timed out
08:31:58 AM.341: v4l2-input: /dev/video0: failed to log status
08:31:58 AM.508: v4l2-input: /dev/video0: select timed out
08:31:58 AM.509: v4l2-input: /dev/video0: failed to log status
08:31:58 AM.676: v4l2-input: /dev/video0: select timed out
08:31:58 AM.676: v4l2-input: /dev/video0: failed to log status
08:31:58 AM.843: v4l2-input: /dev/video0: select timed out
08:31:58 AM.843: v4l2-input: /dev/video0: failed to log status
08:31:59 AM.010: v4l2-input: /dev/video0: select timed out
08:31:59 AM.010: v4l2-input: /dev/video0: failed to log status
08:31:59 AM.177: v4l2-input: /dev/video0: select timed out
08:31:59 AM.177: v4l2-input: /dev/video0: failed to log status
08:31:59 AM.344: v4l2-input: /dev/video0: select timed out
08:31:59 AM.344: v4l2-input: /dev/video0: failed to log status
08:31:59 AM.511: v4l2-input: /dev/video0: select timed out
08:31:59 AM.511: v4l2-input: /dev/video0: failed to log status
08:31:59 AM.678: v4l2-input: /dev/video0: select timed out
08:31:59 AM.678: v4l2-input: /dev/video0: failed to log status
08:31:59 AM.845: v4l2-input: /dev/video0: select timed out
08:31:59 AM.845: v4l2-input: /dev/video0: failed to log status
08:32:00 AM.012: v4l2-input: /dev/video0: select timed out
08:32:00 AM.012: v4l2-input: /dev/video0: failed to log status
08:32:00 AM.179: v4l2-input: /dev/video0: select timed out
08:32:00 AM.179: v4l2-input: /dev/video0: failed to log status
08:32:00 AM.346: v4l2-input: /dev/video0: select timed out
08:32:00 AM.346: v4l2-input: /dev/video0: failed to log status
08:32:00 AM.513: v4l2-input: /dev/video0: select timed out
08:32:00 AM.513: v4l2-input: /dev/video0: failed to log status
08:32:00 AM.680: v4l2-input: /dev/video0: select timed out
08:32:00 AM.680: v4l2-input: /dev/video0: failed to log status
08:32:00 AM.847: v4l2-input: /dev/video0: select timed out
08:32:00 AM.847: v4l2-input: /dev/video0: failed to log status
08:32:01 AM.014: v4l2-input: /dev/video0: select timed out
08:32:01 AM.014: v4l2-input: /dev/video0: failed to log status
08:32:01 AM.181: v4l2-input: /dev/video0: select timed out
08:32:01 AM.181: v4l2-input: /dev/video0: failed to log status
08:32:01 AM.348: v4l2-input: /dev/video0: select timed out
08:32:01 AM.348: v4l2-input: /dev/video0: failed to log status
08:32:01 AM.515: v4l2-input: /dev/video0: select timed out
08:32:01 AM.516: v4l2-input: /dev/video0: failed to log status
08:32:01 AM.683: v4l2-input: /dev/video0: select timed out
08:32:01 AM.683: v4l2-input: /dev/video0: failed to log status
08:32:01 AM.850: v4l2-input: /dev/video0: select timed out
08:32:01 AM.850: v4l2-input: /dev/video0: failed to log status
08:32:02 AM.017: v4l2-input: /dev/video0: select timed out
08:32:02 AM.017: v4l2-input: /dev/video0: failed to log status
08:32:02 AM.184: v4l2-input: /dev/video0: select timed out
08:32:02 AM.184: v4l2-input: /dev/video0: failed to log status
08:32:02 AM.351: v4l2-input: /dev/video0: select timed out
08:32:02 AM.351: v4l2-input: /dev/video0: failed to log status
08:32:02 AM.518: v4l2-input: /dev/video0: select timed out
08:32:02 AM.518: v4l2-input: /dev/video0: failed to log status
08:32:02 AM.685: v4l2-input: /dev/video0: select timed out
08:32:02 AM.685: v4l2-input: /dev/video0: failed to log status
08:32:02 AM.852: v4l2-input: /dev/video0: select timed out
08:32:02 AM.852: v4l2-input: /dev/video0: failed to log status
08:32:03 AM.019: v4l2-input: /dev/video0: select timed out
08:32:03 AM.019: v4l2-input: /dev/video0: failed to log status
08:32:03 AM.186: v4l2-input: /dev/video0: select timed out
08:32:03 AM.186: v4l2-input: /dev/video0: failed to log status
08:32:03 AM.353: v4l2-input: /dev/video0: select timed out
08:32:03 AM.353: v4l2-input: /dev/video0: failed to log status
08:32:03 AM.520: v4l2-input: /dev/video0: select timed out
08:32:03 AM.520: v4l2-input: /dev/video0: failed to log status
08:32:03 AM.687: v4l2-input: /dev/video0: select timed out
08:32:03 AM.687: v4l2-input: /dev/video0: failed to log status
08:32:03 AM.854: v4l2-input: /dev/video0: select timed out
08:32:03 AM.854: v4l2-input: /dev/video0: failed to log status
08:32:04 AM.021: v4l2-input: /dev/video0: select timed out
08:32:04 AM.021: v4l2-input: /dev/video0: failed to log status
08:32:04 AM.188: v4l2-input: /dev/video0: select timed out
08:32:04 AM.188: v4l2-input: /dev/video0: failed to log status
08:32:04 AM.355: v4l2-input: /dev/video0: select timed out
08:32:04 AM.356: v4l2-input: /dev/video0: failed to log status
08:32:04 AM.523: v4l2-input: /dev/video0: select timed out
08:32:04 AM.523: v4l2-input: /dev/video0: failed to log status
08:32:04 AM.690: v4l2-input: /dev/video0: select timed out
08:32:04 AM.690: v4l2-input: /dev/video0: failed to log status
08:32:04 AM.857: v4l2-input: /dev/video0: select timed out
08:32:04 AM.857: v4l2-input: /dev/video0: failed to log status
08:32:05 AM.024: v4l2-input: /dev/video0: select timed out
08:32:05 AM.024: v4l2-input: /dev/video0: failed to log status
08:32:05 AM.191: v4l2-input: /dev/video0: select timed out
08:32:05 AM.191: v4l2-input: /dev/video0: failed to log status
08:32:05 AM.358: v4l2-input: /dev/video0: select timed out
08:32:05 AM.358: v4l2-input: /dev/video0: failed to log status
08:32:05 AM.525: v4l2-input: /dev/video0: select timed out
08:32:05 AM.525: v4l2-input: /dev/video0: failed to log status
08:32:05 AM.692: v4l2-input: /dev/video0: select timed out
08:32:05 AM.692: v4l2-input: /dev/video0: failed to log status
08:32:05 AM.859: v4l2-input: /dev/video0: select timed out
08:32:05 AM.859: v4l2-input: /dev/video0: failed to log status
08:32:06 AM.026: v4l2-input: /dev/video0: select timed out
08:32:06 AM.026: v4l2-input: /dev/video0: failed to log status
08:32:06 AM.193: v4l2-input: /dev/video0: select timed out
08:32:06 AM.193: v4l2-input: /dev/video0: failed to log status
08:32:06 AM.360: v4l2-input: /dev/video0: select timed out
08:32:06 AM.360: v4l2-input: /dev/video0: failed to log status
08:32:06 AM.527: v4l2-input: /dev/video0: select timed out
08:32:06 AM.527: v4l2-input: /dev/video0: failed to log status
08:32:06 AM.694: v4l2-input: /dev/video0: select timed out
08:32:06 AM.694: v4l2-input: /dev/video0: failed to log status
08:32:06 AM.861: v4l2-input: /dev/video0: select timed out
08:32:06 AM.861: v4l2-input: /dev/video0: failed to log status
08:32:07 AM.028: v4l2-input: /dev/video0: select timed out
08:32:07 AM.028: v4l2-input: /dev/video0: failed to log status
08:32:07 AM.195: v4l2-input: /dev/video0: select timed out
08:32:07 AM.195: v4l2-input: /dev/video0: failed to log status
08:32:07 AM.362: v4l2-input: /dev/video0: select timed out
08:32:07 AM.362: v4l2-input: /dev/video0: failed to log status
08:32:07 AM.529: v4l2-input: /dev/video0: select timed out
08:32:07 AM.529: v4l2-input: /dev/video0: failed to log status
08:32:07 AM.696: v4l2-input: /dev/video0: select timed out
08:32:07 AM.696: v4l2-input: /dev/video0: failed to log status
08:32:07 AM.864: v4l2-input: /dev/video0: select timed out
08:32:07 AM.864: v4l2-input: /dev/video0: failed to log status
08:32:08 AM.031: v4l2-input: /dev/video0: select timed out
08:32:08 AM.031: v4l2-input: /dev/video0: failed to log status
08:32:08 AM.198: v4l2-input: /dev/video0: select timed out
08:32:08 AM.203: v4l2-input: /dev/video0: failed to log status
08:32:08 AM.370: v4l2-input: /dev/video0: select timed out
08:32:08 AM.370: v4l2-input: /dev/video0: failed to log status
08:32:08 AM.537: v4l2-input: /dev/video0: select timed out
08:32:08 AM.537: v4l2-input: /dev/video0: failed to log status
08:32:08 AM.704: v4l2-input: /dev/video0: select timed out
08:32:08 AM.704: v4l2-input: /dev/video0: failed to log status
08:32:08 AM.871: v4l2-input: /dev/video0: select timed out
08:32:08 AM.871: v4l2-input: /dev/video0: failed to log status
08:32:09 AM.038: v4l2-input: /dev/video0: select timed out
08:32:09 AM.038: v4l2-input: /dev/video0: failed to log status
08:32:09 AM.205: v4l2-input: /dev/video0: select timed out
08:32:09 AM.205: v4l2-input: /dev/video0: failed to log status
08:32:09 AM.372: v4l2-input: /dev/video0: select timed out
08:32:09 AM.372: v4l2-input: /dev/video0: failed to log status
08:32:09 AM.539: v4l2-input: /dev/video0: select timed out
08:32:09 AM.539: v4l2-input: /dev/video0: failed to log status
08:32:09 AM.706: v4l2-input: /dev/video0: select timed out
08:32:09 AM.706: v4l2-input: /dev/video0: failed to log status
08:32:09 AM.873: v4l2-input: /dev/video0: select timed out
08:32:09 AM.873: v4l2-input: /dev/video0: failed to log status
08:32:10 AM.040: v4l2-input: /dev/video0: select timed out
08:32:10 AM.040: v4l2-input: /dev/video0: failed to log status
08:32:10 AM.207: v4l2-input: /dev/video0: select timed out
08:32:10 AM.207: v4l2-input: /dev/video0: failed to log status
08:32:10 AM.374: v4l2-input: /dev/video0: select timed out
08:32:10 AM.374: v4l2-input: /dev/video0: failed to log status
08:32:10 AM.541: v4l2-input: /dev/video0: select timed out
08:32:10 AM.541: v4l2-input: /dev/video0: failed to log status
08:32:10 AM.708: v4l2-input: /dev/video0: select timed out
08:32:10 AM.708: v4l2-input: /dev/video0: failed to log status
08:32:10 AM.875: v4l2-input: /dev/video0: select timed out
08:32:10 AM.875: v4l2-input: /dev/video0: failed to log status
08:32:11 AM.042: v4l2-input: /dev/video0: select timed out
08:32:11 AM.042: v4l2-input: /dev/video0: failed to log status
08:32:11 AM.210: v4l2-input: /dev/video0: select timed out
08:32:11 AM.210: v4l2-input: /dev/video0: failed to log status
08:32:11 AM.377: v4l2-input: /dev/video0: select timed out
08:32:11 AM.377: v4l2-input: /dev/video0: failed to log status
08:32:11 AM.544: v4l2-input: /dev/video0: select timed out
08:32:11 AM.544: v4l2-input: /dev/video0: failed to log status
08:32:11 AM.711: v4l2-input: /dev/video0: select timed out
08:32:11 AM.711: v4l2-input: /dev/video0: failed to log status
08:32:11 AM.878: v4l2-input: /dev/video0: select timed out
08:32:11 AM.878: v4l2-input: /dev/video0: failed to log status
08:32:12 AM.045: v4l2-input: /dev/video0: select timed out
08:32:12 AM.045: v4l2-input: /dev/video0: failed to log status
08:32:12 AM.212: v4l2-input: /dev/video0: select timed out
08:32:12 AM.212: v4l2-input: /dev/video0: failed to log status
08:32:12 AM.379: v4l2-input: /dev/video0: select timed out
08:32:12 AM.379: v4l2-input: /dev/video0: failed to log status
08:32:12 AM.546: v4l2-input: /dev/video0: select timed out
08:32:12 AM.546: v4l2-input: /dev/video0: failed to log status
08:32:12 AM.713: v4l2-input: /dev/video0: select timed out
08:32:12 AM.713: v4l2-input: /dev/video0: failed to log status
08:32:12 AM.880: v4l2-input: /dev/video0: select timed out
08:32:12 AM.880: v4l2-input: /dev/video0: failed to log status
08:32:13 AM.047: v4l2-input: /dev/video0: select timed out
08:32:13 AM.047: v4l2-input: /dev/video0: failed to log status
08:32:13 AM.214: v4l2-input: /dev/video0: select timed out
08:32:13 AM.216: v4l2-input: /dev/video0: failed to log status
08:32:13 AM.383: v4l2-input: /dev/video0: select timed out
08:32:13 AM.383: v4l2-input: /dev/video0: failed to log status
08:32:13 AM.550: v4l2-input: /dev/video0: select timed out
08:32:13 AM.550: v4l2-input: /dev/video0: failed to log status
08:32:13 AM.717: v4l2-input: /dev/video0: select timed out
08:32:13 AM.717: v4l2-input: /dev/video0: failed to log status
08:32:13 AM.884: v4l2-input: /dev/video0: select timed out
08:32:13 AM.884: v4l2-input: /dev/video0: failed to log status
08:32:14 AM.051: v4l2-input: /dev/video0: select timed out
08:32:14 AM.051: v4l2-input: /dev/video0: failed to log status
08:32:14 AM.218: v4l2-input: /dev/video0: select timed out
08:32:14 AM.219: v4l2-input: /dev/video0: failed to log status
08:32:14 AM.386: v4l2-input: /dev/video0: select timed out
08:32:14 AM.386: v4l2-input: /dev/video0: failed to log status
08:32:14 AM.553: v4l2-input: /dev/video0: select timed out
08:32:14 AM.553: v4l2-input: /dev/video0: failed to log status
08:32:14 AM.720: v4l2-input: /dev/video0: select timed out
08:32:14 AM.720: v4l2-input: /dev/video0: failed to log status
08:32:14 AM.887: v4l2-input: /dev/video0: select timed out
08:32:14 AM.887: v4l2-input: /dev/video0: failed to log status
08:32:15 AM.054: v4l2-input: /dev/video0: select timed out
08:32:15 AM.054: v4l2-input: /dev/video0: failed to log status
08:32:15 AM.221: v4l2-input: /dev/video0: select timed out
08:32:15 AM.221: v4l2-input: /dev/video0: failed to log status
08:32:15 AM.388: v4l2-input: /dev/video0: select timed out
08:32:15 AM.388: v4l2-input: /dev/video0: failed to log status
08:32:15 AM.555: v4l2-input: /dev/video0: select timed out
08:32:15 AM.555: v4l2-input: /dev/video0: failed to log status
08:32:15 AM.722: v4l2-input: /dev/video0: select timed out
08:32:15 AM.722: v4l2-input: /dev/video0: failed to log status
08:32:15 AM.889: v4l2-input: /dev/video0: select timed out
08:32:15 AM.889: v4l2-input: /dev/video0: failed to log status
08:32:16 AM.056: v4l2-input: /dev/video0: select timed out
08:32:16 AM.056: v4l2-input: /dev/video0: failed to log status
08:32:16 AM.223: v4l2-input: /dev/video0: select timed out
08:32:16 AM.223: v4l2-input: /dev/video0: failed to log status
08:32:16 AM.390: v4l2-input: /dev/video0: select timed out
08:32:16 AM.390: v4l2-input: /dev/video0: failed to log status
08:32:16 AM.557: v4l2-input: /dev/video0: select timed out
08:32:16 AM.557: v4l2-input: /dev/video0: failed to log status
08:32:16 AM.724: v4l2-input: /dev/video0: select timed out
08:32:16 AM.724: v4l2-input: /dev/video0: failed to log status
08:32:16 AM.891: v4l2-input: /dev/video0: select timed out
08:32:16 AM.891: v4l2-input: /dev/video0: failed to log status
08:32:17 AM.058: v4l2-input: /dev/video0: select timed out
08:32:17 AM.058: v4l2-input: /dev/video0: failed to log status
08:32:17 AM.225: v4l2-input: /dev/video0: select timed out
08:32:17 AM.225: v4l2-input: /dev/video0: failed to log status
08:32:17 AM.392: v4l2-input: /dev/video0: select timed out
08:32:17 AM.392: v4l2-input: /dev/video0: failed to log status
08:32:17 AM.559: v4l2-input: /dev/video0: select timed out
08:32:17 AM.559: v4l2-input: /dev/video0: failed to log status
08:32:17 AM.727: v4l2-input: /dev/video0: select timed out
08:32:17 AM.727: v4l2-input: /dev/video0: failed to log status
08:32:17 AM.894: v4l2-input: /dev/video0: select timed out
08:32:17 AM.894: v4l2-input: /dev/video0: failed to log status
08:32:18 AM.061: v4l2-input: /dev/video0: select timed out
08:32:18 AM.061: v4l2-input: /dev/video0: failed to log status
08:32:18 AM.228: v4l2-input: /dev/video0: select timed out
08:32:18 AM.228: v4l2-input: /dev/video0: failed to log status
08:32:18 AM.395: v4l2-input: /dev/video0: select timed out
08:32:18 AM.395: v4l2-input: /dev/video0: failed to log status
08:32:18 AM.562: v4l2-input: /dev/video0: select timed out
08:32:18 AM.562: v4l2-input: /dev/video0: failed to log status
08:32:18 AM.729: v4l2-input: /dev/video0: select timed out
08:32:18 AM.729: v4l2-input: /dev/video0: failed to log status
08:32:18 AM.896: v4l2-input: /dev/video0: select timed out
08:32:18 AM.896: v4l2-input: /dev/video0: failed to log status
08:32:19 AM.063: v4l2-input: /dev/video0: select timed out
08:32:19 AM.063: v4l2-input: /dev/video0: failed to log status
08:32:19 AM.230: v4l2-input: /dev/video0: select timed out
08:32:19 AM.230: v4l2-input: /dev/video0: failed to log status
08:32:19 AM.397: v4l2-input: /dev/video0: select timed out
08:32:19 AM.397: v4l2-input: /dev/video0: failed to log status
08:32:19 AM.564: v4l2-input: /dev/video0: select timed out
08:32:19 AM.564: v4l2-input: /dev/video0: failed to log status
08:32:19 AM.731: v4l2-input: /dev/video0: select timed out
08:32:19 AM.731: v4l2-input: /dev/video0: failed to log status
08:32:19 AM.898: v4l2-input: /dev/video0: select timed out
08:32:19 AM.898: v4l2-input: /dev/video0: failed to log status
08:32:20 AM.065: v4l2-input: /dev/video0: select timed out
08:32:20 AM.065: v4l2-input: /dev/video0: failed to log status
08:32:20 AM.232: v4l2-input: /dev/video0: select timed out
08:32:20 AM.232: v4l2-input: /dev/video0: failed to log status
08:32:20 AM.399: v4l2-input: /dev/video0: select timed out
08:32:20 AM.399: v4l2-input: /dev/video0: failed to log status
08:32:20 AM.566: v4l2-input: /dev/video0: select timed out
08:32:20 AM.567: v4l2-input: /dev/video0: failed to log status
08:32:20 AM.734: v4l2-input: /dev/video0: select timed out
08:32:20 AM.734: v4l2-input: /dev/video0: failed to log status
08:32:20 AM.901: v4l2-input: /dev/video0: select timed out
08:32:20 AM.901: v4l2-input: /dev/video0: failed to log status
08:32:21 AM.068: v4l2-input: /dev/video0: select timed out
08:32:21 AM.068: v4l2-input: /dev/video0: failed to log status
08:32:21 AM.235: v4l2-input: /dev/video0: select timed out
08:32:21 AM.235: v4l2-input: /dev/video0: failed to log status
08:32:21 AM.402: v4l2-input: /dev/video0: select timed out
08:32:21 AM.402: v4l2-input: /dev/video0: failed to log status
08:32:21 AM.569: v4l2-input: /dev/video0: select timed out
08:32:21 AM.569: v4l2-input: /dev/video0: failed to log status
08:32:21 AM.736: v4l2-input: /dev/video0: select timed out
08:32:21 AM.736: v4l2-input: /dev/video0: failed to log status
08:32:21 AM.903: v4l2-input: /dev/video0: select timed out
08:32:21 AM.903: v4l2-input: /dev/video0: failed to log status
08:32:22 AM.070: v4l2-input: /dev/video0: select timed out
08:32:22 AM.070: v4l2-input: /dev/video0: failed to log status
08:32:22 AM.237: v4l2-input: /dev/video0: select timed out
08:32:22 AM.237: v4l2-input: /dev/video0: failed to log status
08:32:22 AM.404: v4l2-input: /dev/video0: select timed out
08:32:22 AM.404: v4l2-input: /dev/video0: failed to log status
08:32:22 AM.571: v4l2-input: /dev/video0: select timed out
08:32:22 AM.571: v4l2-input: /dev/video0: failed to log status
08:32:22 AM.738: v4l2-input: /dev/video0: select timed out
08:32:22 AM.738: v4l2-input: /dev/video0: failed to log status
08:32:22 AM.905: v4l2-input: /dev/video0: select timed out
08:32:22 AM.906: v4l2-input: /dev/video0: failed to log status
08:32:23 AM.073: v4l2-input: /dev/video0: select timed out
08:32:23 AM.073: v4l2-input: /dev/video0: failed to log status
08:32:23 AM.240: v4l2-input: /dev/video0: select timed out
08:32:23 AM.240: v4l2-input: /dev/video0: failed to log status
08:32:23 AM.407: v4l2-input: /dev/video0: select timed out
08:32:23 AM.407: v4l2-input: /dev/video0: failed to log status
08:32:23 AM.574: v4l2-input: /dev/video0: select timed out
08:32:23 AM.574: v4l2-input: /dev/video0: failed to log status
08:32:23 AM.741: v4l2-input: /dev/video0: select timed out
08:32:23 AM.741: v4l2-input: /dev/video0: failed to log status
08:32:23 AM.908: v4l2-input: /dev/video0: select timed out
08:32:23 AM.908: v4l2-input: /dev/video0: failed to log status
08:32:24 AM.075: v4l2-input: /dev/video0: select timed out
08:32:24 AM.075: v4l2-input: /dev/video0: failed to log status
08:32:24 AM.242: v4l2-input: /dev/video0: select timed out
08:32:24 AM.242: v4l2-input: /dev/video0: failed to log status
08:32:24 AM.409: v4l2-input: /dev/video0: select timed out
08:32:24 AM.409: v4l2-input: /dev/video0: failed to log status
08:32:24 AM.576: v4l2-input: /dev/video0: select timed out
08:32:24 AM.576: v4l2-input: /dev/video0: failed to log status
08:32:24 AM.743: v4l2-input: /dev/video0: select timed out
08:32:24 AM.743: v4l2-input: /dev/video0: failed to log status
08:32:24 AM.910: v4l2-input: /dev/video0: select timed out
08:32:24 AM.910: v4l2-input: /dev/video0: failed to log status
08:32:25 AM.077: v4l2-input: /dev/video0: select timed out
08:32:25 AM.077: v4l2-input: /dev/video0: failed to log status
08:32:25 AM.244: v4l2-input: /dev/video0: select timed out
08:32:25 AM.244: v4l2-input: /dev/video0: failed to log status
08:32:25 AM.411: v4l2-input: /dev/video0: select timed out
08:32:25 AM.411: v4l2-input: /dev/video0: failed to log status
08:32:25 AM.578: v4l2-input: /dev/video0: select timed out
08:32:25 AM.578: v4l2-input: /dev/video0: failed to log status
08:32:25 AM.745: v4l2-input: /dev/video0: select timed out
08:32:25 AM.745: v4l2-input: /dev/video0: failed to log status
08:32:25 AM.912: v4l2-input: /dev/video0: select timed out
08:32:25 AM.912: v4l2-input: /dev/video0: failed to log status
08:32:26 AM.079: v4l2-input: /dev/video0: select timed out
08:32:26 AM.079: v4l2-input: /dev/video0: failed to log status
08:32:26 AM.246: v4l2-input: /dev/video0: select timed out
08:32:26 AM.246: v4l2-input: /dev/video0: failed to log status
08:32:26 AM.414: v4l2-input: /dev/video0: select timed out
08:32:26 AM.414: v4l2-input: /dev/video0: failed to log status
08:32:26 AM.581: v4l2-input: /dev/video0: select timed out
08:32:26 AM.581: v4l2-input: /dev/video0: failed to log status
08:32:26 AM.748: v4l2-input: /dev/video0: select timed out
08:32:26 AM.748: v4l2-input: /dev/video0: failed to log status
08:32:26 AM.915: v4l2-input: /dev/video0: select timed out
08:32:26 AM.920: v4l2-input: /dev/video0: failed to log status
08:32:27 AM.087: v4l2-input: /dev/video0: select timed out
08:32:27 AM.087: v4l2-input: /dev/video0: failed to log status
08:32:27 AM.254: v4l2-input: /dev/video0: select timed out
08:32:27 AM.254: v4l2-input: /dev/video0: failed to log status
08:32:27 AM.421: v4l2-input: /dev/video0: select timed out
08:32:27 AM.421: v4l2-input: /dev/video0: failed to log status
08:32:27 AM.588: v4l2-input: /dev/video0: select timed out
08:32:27 AM.588: v4l2-input: /dev/video0: failed to log status
08:32:27 AM.755: v4l2-input: /dev/video0: select timed out
08:32:27 AM.755: v4l2-input: /dev/video0: failed to log status
08:32:27 AM.922: v4l2-input: /dev/video0: select timed out
08:32:27 AM.922: v4l2-input: /dev/video0: failed to log status
08:32:28 AM.089: v4l2-input: /dev/video0: select timed out
08:32:28 AM.089: v4l2-input: /dev/video0: failed to log status
08:32:28 AM.256: v4l2-input: /dev/video0: select timed out
08:32:28 AM.256: v4l2-input: /dev/video0: failed to log status
08:32:28 AM.423: v4l2-input: /dev/video0: select timed out
08:32:28 AM.423: v4l2-input: /dev/video0: failed to log status
08:32:28 AM.590: v4l2-input: /dev/video0: select timed out
08:32:28 AM.590: v4l2-input: /dev/video0: failed to log status
08:32:28 AM.758: v4l2-input: /dev/video0: select timed out
08:32:28 AM.758: v4l2-input: /dev/video0: failed to log status
08:32:28 AM.925: v4l2-input: /dev/video0: select timed out
08:32:28 AM.925: v4l2-input: /dev/video0: failed to log status
08:32:29 AM.092: v4l2-input: /dev/video0: select timed out
08:32:29 AM.092: v4l2-input: /dev/video0: failed to log status
08:32:29 AM.259: v4l2-input: /dev/video0: select timed out
08:32:29 AM.259: v4l2-input: /dev/video0: failed to log status
08:32:29 AM.426: v4l2-input: /dev/video0: select timed out
08:32:29 AM.426: v4l2-input: /dev/video0: failed to log status
08:32:29 AM.593: v4l2-input: /dev/video0: select timed out
08:32:29 AM.593: v4l2-input: /dev/video0: failed to log status
08:32:29 AM.760: v4l2-input: /dev/video0: select timed out
08:32:29 AM.760: v4l2-input: /dev/video0: failed to log status
08:32:29 AM.927: v4l2-input: /dev/video0: select timed out
08:32:29 AM.927: v4l2-input: /dev/video0: failed to log status
08:32:30 AM.094: v4l2-input: /dev/video0: select timed out
08:32:30 AM.094: v4l2-input: /dev/video0: failed to log status
08:32:30 AM.261: v4l2-input: /dev/video0: select timed out
08:32:30 AM.261: v4l2-input: /dev/video0: failed to log status
08:32:30 AM.428: v4l2-input: /dev/video0: select timed out
08:32:30 AM.428: v4l2-input: /dev/video0: failed to log status
08:32:30 AM.595: v4l2-input: /dev/video0: select timed out
08:32:30 AM.595: v4l2-input: /dev/video0: failed to log status
08:32:30 AM.762: v4l2-input: /dev/video0: select timed out
08:32:30 AM.762: v4l2-input: /dev/video0: failed to log status
08:32:30 AM.929: v4l2-input: /dev/video0: select timed out
08:32:30 AM.929: v4l2-input: /dev/video0: failed to log status
08:32:31 AM.096: v4l2-input: /dev/video0: select timed out
08:32:31 AM.096: v4l2-input: /dev/video0: failed to log status
08:32:31 AM.263: v4l2-input: /dev/video0: select timed out
08:32:31 AM.263: v4l2-input: /dev/video0: failed to log status
08:32:31 AM.430: v4l2-input: /dev/video0: select timed out
08:32:31 AM.430: v4l2-input: /dev/video0: failed to log status
08:32:31 AM.597: v4l2-input: /dev/video0: select timed out
08:32:31 AM.598: v4l2-input: /dev/video0: failed to log status
08:32:31 AM.765: v4l2-input: /dev/video0: select timed out
08:32:31 AM.765: v4l2-input: /dev/video0: failed to log status
08:32:31 AM.932: v4l2-input: /dev/video0: select timed out
08:32:31 AM.937: v4l2-input: /dev/video0: failed to log status
08:32:32 AM.104: v4l2-input: /dev/video0: select timed out
08:32:32 AM.104: v4l2-input: /dev/video0: failed to log status
08:32:32 AM.271: v4l2-input: /dev/video0: select timed out
08:32:32 AM.271: v4l2-input: /dev/video0: failed to log status
08:32:32 AM.438: v4l2-input: /dev/video0: select timed out
08:32:32 AM.438: v4l2-input: /dev/video0: failed to log status
08:32:32 AM.605: v4l2-input: /dev/video0: select timed out
08:32:32 AM.605: v4l2-input: /dev/video0: failed to log status
08:32:32 AM.772: v4l2-input: /dev/video0: select timed out
08:32:32 AM.772: v4l2-input: /dev/video0: failed to log status
08:32:32 AM.939: v4l2-input: /dev/video0: select timed out
08:32:32 AM.939: v4l2-input: /dev/video0: failed to log status
08:32:33 AM.106: v4l2-input: /dev/video0: select timed out
08:32:33 AM.106: v4l2-input: /dev/video0: failed to log status
08:32:33 AM.273: v4l2-input: /dev/video0: select timed out
08:32:33 AM.273: v4l2-input: /dev/video0: failed to log status
08:32:33 AM.440: v4l2-input: /dev/video0: select timed out
08:32:33 AM.440: v4l2-input: /dev/video0: failed to log status
08:32:33 AM.607: v4l2-input: /dev/video0: select timed out
08:32:33 AM.607: v4l2-input: /dev/video0: failed to log status
08:32:33 AM.774: v4l2-input: /dev/video0: select timed out
08:32:33 AM.774: v4l2-input: /dev/video0: failed to log status
08:32:33 AM.941: v4l2-input: /dev/video0: select timed out
08:32:33 AM.941: v4l2-input: /dev/video0: failed to log status
08:32:34 AM.108: v4l2-input: /dev/video0: select timed out
08:32:34 AM.108: v4l2-input: /dev/video0: failed to log status
08:32:34 AM.275: v4l2-input: /dev/video0: select timed out
08:32:34 AM.275: v4l2-input: /dev/video0: failed to log status
08:32:34 AM.442: v4l2-input: /dev/video0: select timed out
08:32:34 AM.442: v4l2-input: /dev/video0: failed to log status
08:32:34 AM.609: v4l2-input: /dev/video0: select timed out
08:32:34 AM.609: v4l2-input: /dev/video0: failed to log status
08:32:34 AM.776: v4l2-input: /dev/video0: select timed out
08:32:34 AM.777: v4l2-input: /dev/video0: failed to log status
08:32:34 AM.944: v4l2-input: /dev/video0: select timed out
08:32:34 AM.944: v4l2-input: /dev/video0: failed to log status
08:32:35 AM.111: v4l2-input: /dev/video0: select timed out
08:32:35 AM.111: v4l2-input: /dev/video0: failed to log status
08:32:35 AM.278: v4l2-input: /dev/video0: select timed out
08:32:35 AM.278: v4l2-input: /dev/video0: failed to log status
08:32:35 AM.445: v4l2-input: /dev/video0: select timed out
08:32:35 AM.445: v4l2-input: /dev/video0: failed to log status
08:32:35 AM.612: v4l2-input: /dev/video0: select timed out
08:32:35 AM.612: v4l2-input: /dev/video0: failed to log status
08:32:35 AM.779: v4l2-input: /dev/video0: select timed out
08:32:35 AM.779: v4l2-input: /dev/video0: failed to log status
08:32:35 AM.946: v4l2-input: /dev/video0: select timed out
08:32:35 AM.946: v4l2-input: /dev/video0: failed to log status
08:32:36 AM.113: v4l2-input: /dev/video0: select timed out
08:32:36 AM.113: v4l2-input: /dev/video0: failed to log status
08:32:36 AM.280: v4l2-input: /dev/video0: select timed out
08:32:36 AM.280: v4l2-input: /dev/video0: failed to log status
08:32:36 AM.447: v4l2-input: /dev/video0: select timed out
08:32:36 AM.447: v4l2-input: /dev/video0: failed to log status
08:32:36 AM.614: v4l2-input: /dev/video0: select timed out
08:32:36 AM.614: v4l2-input: /dev/video0: failed to log status
08:32:36 AM.781: v4l2-input: /dev/video0: select timed out
08:32:36 AM.781: v4l2-input: /dev/video0: failed to log status
08:32:36 AM.948: v4l2-input: /dev/video0: select timed out
08:32:36 AM.948: v4l2-input: /dev/video0: failed to log status
08:32:37 AM.115: v4l2-input: /dev/video0: select timed out
08:32:37 AM.115: v4l2-input: /dev/video0: failed to log status
08:32:37 AM.282: v4l2-input: /dev/video0: select timed out
08:32:37 AM.282: v4l2-input: /dev/video0: failed to log status
08:32:37 AM.449: v4l2-input: /dev/video0: select timed out
08:32:37 AM.449: v4l2-input: /dev/video0: failed to log status
08:32:37 AM.617: v4l2-input: /dev/video0: select timed out
08:32:37 AM.617: v4l2-input: /dev/video0: failed to log status
08:32:37 AM.784: v4l2-input: /dev/video0: select timed out
08:32:37 AM.784: v4l2-input: /dev/video0: failed to log status
08:32:37 AM.951: v4l2-input: /dev/video0: select timed out
08:32:37 AM.951: v4l2-input: /dev/video0: failed to log status
08:32:38 AM.118: v4l2-input: /dev/video0: select timed out
08:32:38 AM.118: v4l2-input: /dev/video0: failed to log status
08:32:38 AM.285: v4l2-input: /dev/video0: select timed out
08:32:38 AM.285: v4l2-input: /dev/video0: failed to log status
08:32:38 AM.452: v4l2-input: /dev/video0: select timed out
08:32:38 AM.452: v4l2-input: /dev/video0: failed to log status
08:32:38 AM.619: v4l2-input: /dev/video0: select timed out
08:32:38 AM.619: v4l2-input: /dev/video0: failed to log status
08:32:38 AM.786: v4l2-input: /dev/video0: select timed out
08:32:38 AM.786: v4l2-input: /dev/video0: failed to log status
08:32:38 AM.953: v4l2-input: /dev/video0: select timed out
08:32:38 AM.953: v4l2-input: /dev/video0: failed to log status
08:32:39 AM.120: v4l2-input: /dev/video0: select timed out
08:32:39 AM.120: v4l2-input: /dev/video0: failed to log status
08:32:39 AM.287: v4l2-input: /dev/video0: select timed out
08:32:39 AM.287: v4l2-input: /dev/video0: failed to log status
08:32:39 AM.454: v4l2-input: /dev/video0: select timed out
08:32:39 AM.454: v4l2-input: /dev/video0: failed to log status
08:32:39 AM.621: v4l2-input: /dev/video0: select timed out
08:32:39 AM.621: v4l2-input: /dev/video0: failed to log status
08:32:39 AM.788: v4l2-input: /dev/video0: select timed out
08:32:39 AM.788: v4l2-input: /dev/video0: failed to log status
08:32:39 AM.955: v4l2-input: /dev/video0: select timed out
08:32:39 AM.955: v4l2-input: /dev/video0: failed to log status
08:32:40 AM.122: v4l2-input: /dev/video0: select timed out
08:32:40 AM.122: v4l2-input: /dev/video0: failed to log status
08:32:40 AM.289: v4l2-input: /dev/video0: select timed out
08:32:40 AM.289: v4l2-input: /dev/video0: failed to log status
08:32:40 AM.457: v4l2-input: /dev/video0: select timed out
08:32:40 AM.457: v4l2-input: /dev/video0: failed to log status
08:32:40 AM.624: v4l2-input: /dev/video0: select timed out
08:32:40 AM.624: v4l2-input: /dev/video0: failed to log status
08:32:40 AM.791: v4l2-input: /dev/video0: select timed out
08:32:40 AM.791: v4l2-input: /dev/video0: failed to log status
08:32:40 AM.958: v4l2-input: /dev/video0: select timed out
08:32:40 AM.958: v4l2-input: /dev/video0: failed to log status
08:32:41 AM.125: v4l2-input: /dev/video0: select timed out
08:32:41 AM.125: v4l2-input: /dev/video0: failed to log status
08:32:41 AM.292: v4l2-input: /dev/video0: select timed out
08:32:41 AM.292: v4l2-input: /dev/video0: failed to log status
08:32:41 AM.459: v4l2-input: /dev/video0: select timed out
08:32:41 AM.459: v4l2-input: /dev/video0: failed to log status
08:32:41 AM.626: v4l2-input: /dev/video0: select timed out
08:32:41 AM.626: v4l2-input: /dev/video0: failed to log status
08:32:41 AM.793: v4l2-input: /dev/video0: select timed out
08:32:41 AM.793: v4l2-input: /dev/video0: failed to log status
08:32:41 AM.960: v4l2-input: /dev/video0: select timed out
08:32:41 AM.960: v4l2-input: /dev/video0: failed to log status
08:32:42 AM.127: v4l2-input: /dev/video0: select timed out
08:32:42 AM.127: v4l2-input: /dev/video0: failed to log status
08:32:42 AM.294: v4l2-input: /dev/video0: select timed out
08:32:42 AM.294: v4l2-input: /dev/video0: failed to log status
08:32:42 AM.461: v4l2-input: /dev/video0: select timed out
08:32:42 AM.461: v4l2-input: /dev/video0: failed to log status
08:32:42 AM.628: v4l2-input: /dev/video0: select timed out
08:32:42 AM.628: v4l2-input: /dev/video0: failed to log status
08:32:42 AM.795: v4l2-input: /dev/video0: select timed out
08:32:42 AM.795: v4l2-input: /dev/video0: failed to log status
08:32:42 AM.962: v4l2-input: /dev/video0: select timed out
08:32:42 AM.962: v4l2-input: /dev/video0: failed to log status
08:32:43 AM.129: v4l2-input: /dev/video0: select timed out
08:32:43 AM.129: v4l2-input: /dev/video0: failed to log status
08:32:43 AM.297: v4l2-input: /dev/video0: select timed out
08:32:43 AM.297: v4l2-input: /dev/video0: failed to log status
08:32:43 AM.464: v4l2-input: /dev/video0: select timed out
08:32:43 AM.464: v4l2-input: /dev/video0: failed to log status
08:32:43 AM.631: v4l2-input: /dev/video0: select timed out
08:32:43 AM.631: v4l2-input: /dev/video0: failed to log status
08:32:43 AM.798: v4l2-input: /dev/video0: select timed out
08:32:43 AM.798: v4l2-input: /dev/video0: failed to log status
08:32:43 AM.965: v4l2-input: /dev/video0: select timed out
08:32:43 AM.965: v4l2-input: /dev/video0: failed to log status
08:32:44 AM.132: v4l2-input: /dev/video0: select timed out
08:32:44 AM.132: v4l2-input: /dev/video0: failed to log status
08:32:44 AM.299: v4l2-input: /dev/video0: select timed out
08:32:44 AM.299: v4l2-input: /dev/video0: failed to log status
08:32:44 AM.466: v4l2-input: /dev/video0: select timed out
08:32:44 AM.466: v4l2-input: /dev/video0: failed to log status
08:32:44 AM.529: ==== Shutting down ==================================================
08:32:44 AM.533: pulse-input: Stopped recording from 'alsa_input.usb-Razer_Inc_Razer_Seiren_X_UC1738L01301910-00.analog-stereo'
08:32:44 AM.533: pulse-input: Got 7204 packets with 3163939 frames
08:32:44 AM.633: v4l2-input: /dev/video0: select timed out
08:32:44 AM.633: v4l2-input: /dev/video0: failed to log status
08:32:44 AM.633: v4l2-input: /dev/video0: Stopped capture after 0 frames
08:32:44 AM.634: pulse-input: Stopped recording from 'denoised'
08:32:44 AM.634: pulse-input: Got 2812 packets with 3374400 frames
08:32:44 AM.634: All scene data cleared
08:32:44 AM.634: ------------------------------------------------
08:32:44 AM.688: [Scripting] Total detached callbacks: 0
08:32:44 AM.688: Freeing OBS context data
08:32:44 AM.695: == Profiler Results =============================
08:32:44 AM.695: run_program_init: 738.576 ms
08:32:44 AM.695:  ┣OBSApp::AppInit: 5.163 ms
08:32:44 AM.695:  ┃ ┗OBSApp::InitLocale: 3.503 ms
08:32:44 AM.695:  ┗OBSApp::OBSInit: 679.302 ms
08:32:44 AM.695:    ┣obs_startup: 0.908 ms
08:32:44 AM.695:    ┗OBSBasic::OBSInit: 659.603 ms
08:32:44 AM.695:      ┣OBSBasic::InitBasicConfig: 0.04 ms
08:32:44 AM.695:      ┣OBSBasic::ResetAudio: 0.063 ms
08:32:44 AM.695:      ┣OBSBasic::ResetVideo: 80.051 ms
08:32:44 AM.695:      ┣OBSBasic::InitOBSCallbacks: 0.003 ms
08:32:44 AM.695:      ┣OBSBasic::InitHotkeys: 0.021 ms
08:32:44 AM.695:      ┣obs_load_all_modules: 77.777 ms
08:32:44 AM.695:      ┃ ┣obs_init_module(decklink-captions.so): 0.02 ms
08:32:44 AM.695:      ┃ ┣obs_init_module(decklink-ouput-ui.so): 0.416 ms
08:32:44 AM.695:      ┃ ┣obs_init_module(frontend-tools.so): 44.062 ms
08:32:44 AM.695:      ┃ ┣obs_init_module(image-source.so): 0.003 ms
08:32:44 AM.695:      ┃ ┣obs_init_module(linux-alsa.so): 0.001 ms
08:32:44 AM.695:      ┃ ┣obs_init_module(linux-capture.so): 0.169 ms
08:32:44 AM.695:      ┃ ┣obs_init_module(linux-decklink.so): 0.062 ms
08:32:44 AM.695:      ┃ ┣obs_init_module(linux-jack.so): 0 ms
08:32:44 AM.695:      ┃ ┣obs_init_module(linux-pulseaudio.so): 0.001 ms
08:32:44 AM.695:      ┃ ┣obs_init_module(linux-v4l2.so): 2.632 ms
08:32:44 AM.695:      ┃ ┣obs_init_module(obs-ffmpeg.so): 2.736 ms
08:32:44 AM.695:      ┃ ┃ ┗nvenc_check: 2.713 ms
08:32:44 AM.695:      ┃ ┣obs_init_module(obs-filters.so): 0.009 ms
08:32:44 AM.695:      ┃ ┣obs_init_module(obs-libfdk.so): 0.001 ms
08:32:44 AM.695:      ┃ ┣obs_init_module(obs-outputs.so): 0.001 ms
08:32:44 AM.695:      ┃ ┣obs_init_module(obs-transitions.so): 0.002 ms
08:32:44 AM.695:      ┃ ┣obs_init_module(obs-x264.so): 0 ms
08:32:44 AM.695:      ┃ ┣obs_init_module(rtmp-services.so): 0.423 ms
08:32:44 AM.695:      ┃ ┗obs_init_module(text-freetype2.so): 0.004 ms
08:32:44 AM.695:      ┣OBSBasic::ResetOutputs: 0.313 ms
08:32:44 AM.695:      ┣OBSBasic::CreateHotkeys: 0.028 ms
08:32:44 AM.695:      ┣OBSBasic::InitService: 1.008 ms
08:32:44 AM.695:      ┣OBSBasic::InitPrimitives: 0.07 ms
08:32:44 AM.695:      ┗OBSBasic::Load: 453.733 ms
08:32:44 AM.695: obs_hotkey_thread(25 ms): min=0.045 ms, median=0.087 ms, max=21.735 ms, 99th percentile=2.306 ms, 100% below 25 ms
08:32:44 AM.695: audio_thread(Audio): min=0 ms, median=0.052 ms, max=0.977 ms, 99th percentile=0.202 ms
08:32:44 AM.695: obs_graphics_thread(16.6667 ms): min=0.051 ms, median=2.852 ms, max=413.466 ms, 99th percentile=7.458 ms, 99.7918% below 16.667 ms
08:32:44 AM.695:  ┣tick_sources: min=0 ms, median=2.605 ms, max=413.404 ms, 99th percentile=6.497 ms
08:32:44 AM.695:  ┣output_frame: min=0.035 ms, median=0.091 ms, max=8.582 ms, 99th percentile=0.196 ms
08:32:44 AM.695:  ┃ ┗gs_context(video->graphics): min=0.034 ms, median=0.091 ms, max=8.582 ms, 99th percentile=0.196 ms
08:32:44 AM.695:  ┃   ┣render_video: min=0.007 ms, median=0.043 ms, max=2.523 ms, 99th percentile=0.121 ms
08:32:44 AM.695:  ┃   ┃ ┗render_main_texture: min=0.005 ms, median=0.042 ms, max=2.522 ms, 99th percentile=0.117 ms
08:32:44 AM.695:  ┃   ┗gs_flush: min=0.001 ms, median=0.003 ms, max=0.037 ms, 99th percentile=0.006 ms
08:32:44 AM.695:  ┗render_displays: min=0.001 ms, median=0.134 ms, max=15.074 ms, 99th percentile=0.428 ms
08:32:44 AM.695: =================================================
08:32:44 AM.696: == Profiler Time Between Calls ==================
08:32:44 AM.696: obs_hotkey_thread(25 ms): min=25.076 ms, median=25.145 ms, max=46.794 ms, 96.763% within ±2% of 25 ms (0% lower, 3.23703% higher)
08:32:44 AM.696: obs_graphics_thread(16.6667 ms): min=11.159 ms, median=16.667 ms, max=413.47 ms, 99.6066% within ±2% of 16.667 ms (0.185142% lower, 0.208285% higher)
08:32:44 AM.696: =================================================
08:32:44 AM.701: Number of memory leaks: 0
