{
	"install_id": "a07d6de6-6a69-43f9-ab4d-d0d8053de6ef",
	"enable_system_notifications": "false",
	"collapse_to_tray": "true",
	"use_hardware_acceleration": "true",
	"current_theme": "default-theme",
	"blizzard_agent_path": "",
	"wowup_release_channel": "0",
	"use_symlink_mode": "false",
	"retail_default_addon_channel": "0",
	"retail_default_auto_update": "false",
	"classic_default_addon_channel": "0",
	"classic_default_auto_update": "false",
	"retailptr_default_addon_channel": "0",
	"retailptr_default_auto_update": "false",
	"classicptr_default_addon_channel": "0",
	"classicptr_default_auto_update": "false",
	"beta_default_addon_channel": "0",
	"beta_default_auto_update": "false",
	"classicbeta_default_addon_channel": "0",
	"classicbeta_default_auto_update": "false",
	"selected_language": "en",
	"my_addons_sort_order": [
		{
			"colId": "name",
			"sort": null
		},
		{
			"colId": "sortOrder",
			"sort": "asc"
		},
		{
			"colId": "installedAt",
			"sort": null
		},
		{
			"colId": "latestVersion",
			"sort": null
		},
		{
			"colId": "releasedAt",
			"sort": null
		},
		{
			"colId": "gameVersion",
			"sort": null
		},
		{
			"colId": "externalChannel",
			"sort": null
		},
		{
			"colId": "providerName",
			"sort": null
		},
		{
			"colId": "author",
			"sort": null
		}
	],
	"telemetry_enabled": "true",
	"wow_installations": [
		{
			"id": "93c1d396-dbc4-49bb-9723-b41d80e57ed9",
			"clientType": 0,
			"defaultAddonChannelType": 0,
			"defaultAutoUpdate": true,
			"label": "Retail",
			"location": "/home/braden/Games/battlenet/drive_c/Program Files (x86)/World of Warcraft/_retail_/Wow.exe",
			"selected": true
		}
	],
	"main-window-state": {
		"width": 2560,
		"height": 1414,
		"centered": false,
		"x": 1,
		"y": 27,
		"isMaximized": false,
		"isFullScreen": false
	},
	"addon_migration_version": "2.8.2",
	"classicera_default_addon_channel": "0",
	"classicera_default_auto_update": "false",
	"update_notes_popup_version": "2.8.2",
	"enable_app_badge": "false",
	"trusted_domains": [
		"wowup.io",
		"discord.gg",
		"www.patreon.com",
		"github.com",
		"www.curseforge.com"
	],
	"selected_details_tab": "description",
	"classiceraptr_default_addon_channel": "0",
	"classiceraptr_default_auto_update": "false",
	"acct_push_enabled": "false",
	"wowup_release_channel_2_6": "1",
	"addon_providers": [
		{
			"providerName": "wago",
			"enabled": true,
			"canEdit": true
		}
	],
	"wago_prompt": "true",
	"start_with_system": "true",
	"start_minimized": "true"
}